<?xml version="1.0" encoding="utf-8"?>
<!-- Generator: Adobe Illustrator 16.0.0, SVG Export Plug-In . SVG Version: 6.00 Build 0)  -->
<!DOCTYPE svg PUBLIC "-//W3C//DTD SVG 1.1//EN" "http://www.w3.org/Graphics/SVG/1.1/DTD/svg11.dtd">
<svg version="1.1" id="Layer_1" xmlns="http://www.w3.org/2000/svg" xmlns:xlink="http://www.w3.org/1999/xlink" x="0px" y="0px"
	 width="60px" height="55px" viewBox="0 0 60 55" enable-background="new 0 0 60 55" xml:space="preserve">
<g>
	<defs>
		<path id="SVGID_1_" d="M23.432,24.665c0.438-0.761,0.843-1.449,1.262-2.189c0.127,0.22,0.253,0.437,0.432,0.747
			c-0.421,0.737-0.803,1.393-1.214,2.107C23.743,25.096,23.602,24.902,23.432,24.665 M18.865,21.074
			c0.338-0.928,0.868-1.569,1.259-2.359c0.17,0.296,0.288,0.498,0.427,0.741c-0.258,0.775-0.751,1.413-1.165,2.194
			C19.211,21.449,19.047,21.281,18.865,21.074 M10.306,19.102c-0.229-0.403-0.183-1.159,0.148-1.744
			c0.873-1.546,1.753-3.078,2.643-4.599c0.346-0.593,0.751-0.662,0.993-0.233c0.242,0.43,0.198,1.109-0.146,1.726
			c-0.45,0.81-0.965,1.623-1.371,2.387c0.002,0.003,0.004,0.006,0.006,0.01c-0.423,0.734-0.846,1.482-1.278,2.202
			c-0.209,0.35-0.428,0.522-0.623,0.522C10.536,19.373,10.408,19.283,10.306,19.102 M12.598,5.208
			C12.58,5.239,12.562,5.27,12.544,5.3L2.142,23.314C1.383,24.626,1.003,26.088,1,27.551v0.045c0.003,1.474,0.389,2.948,1.153,4.271
			l10.392,17.998c0.011,0.02,0.021,0.038,0.033,0.057c0.7,1.194,2.432,1.178,3.123-0.021l11.131-19.304
			c1.091-1.891,1.09-4.219-0.001-6.109l-4.419-7.655c0.018,0.521,0.066,0.991,0.092,1.5c0.027,0.54,0.098,0.906,0.412,1.16
			c0.614,0.496,0.754,1.492,0.592,2.698c-0.154,1.151-0.593,1.825-1.232,2.146c-0.093,0.046-0.192,0.125-0.278,0.11
			c-0.511-0.084-0.837,0.422-1.131,1.254c0.935,2.434,1.214,5.227,0.583,8.42c-0.461,2.329-1.302,4.254-2.476,5.681
			c-2.508,3.045-5.438,2.791-7.176-0.477c-1.938-3.645-1.631-9.211,0.493-13.239c1.714-3.254,4.82-5.266,7.657-2.077
			c0.403-0.417,0.659-0.871,0.57-1.774c-0.07-0.713,0.137-1.455,0.47-2.039c0.181-0.318,0.231-0.614,0.203-0.998
			c-0.042-0.588-0.073-1.173-0.103-1.765c-0.055-1.074-0.052-2.249-0.179-3.202l-1.592-2.757c-0.066,0.375-0.123,0.733-0.189,1.112
			c-0.146,0.833-0.377,1.505-0.752,2.13c-0.647,1.074-1.271,2.189-1.962,3.385c0.382,0.239,0.72,0.452,1.049,0.659
			c-0.016,0.112-0.015,0.162-0.029,0.191c-0.658,1.343-0.659,1.345-1.526,0.89c-0.959-0.502-1.918-1.004-2.921-1.529
			c0.058-0.198,0.07-0.285,0.101-0.344c0.628-1.202,0.638-1.239,1.429-0.78c0.376,0.219,0.625,0.077,0.925-0.477
			c0.634-1.17,1.297-2.286,1.961-3.407c0.242-0.408,0.388-0.833,0.486-1.379c0.136-0.753,0.333-1.613,0.396-2.238l-2.568-4.447
			c-0.348-0.603-0.959-0.906-1.57-0.906C13.547,4.332,12.948,4.623,12.598,5.208"/>
	</defs>
	<clipPath id="SVGID_2_">
		<use xlink:href="#SVGID_1_"  overflow="visible"/>
	</clipPath>
	
		<linearGradient id="SVGID_3_" gradientUnits="userSpaceOnUse" x1="-313.8916" y1="176.9941" x2="-313.7147" y2="176.9941" gradientTransform="matrix(150.3629 0 0 -150.3629 47198.625 26641.125)">
		<stop  offset="0" style="stop-color:#FFE100"/>
		<stop  offset="1" style="stop-color:#F6733C"/>
	</linearGradient>
	<rect x="1" y="4.332" clip-path="url(#SVGID_2_)" fill="url(#SVGID_3_)" width="26.922" height="46.785"/>
</g>
<g>
	<defs>
		<path id="SVGID_4_" d="M13.163,27.338c-1.749,3.161-1.91,8.097-0.247,10.787c1.619,2.62,4.44,2.165,6.254-1.089
			c1.599-2.866,1.93-7.582,0.678-9.704c-0.525,0.91-1.055,1.816-1.573,2.742c-0.072,0.129-0.111,0.362-0.118,0.54
			c-0.01,0.278,0.016,0.555,0.038,0.827c0.189,2.277-1.291,4.664-2.656,4.168c-1.255-0.456-1.817-2.822-1.1-4.908
			c0.515-1.499,1.437-2.273,2.404-2.041c0.167,0.04,0.414,0.114,0.513-0.044c0.566-0.899,1.1-1.864,1.643-2.806
			c-0.552-0.903-1.313-1.331-2.136-1.331C15.598,24.479,14.185,25.49,13.163,27.338"/>
	</defs>
	<clipPath id="SVGID_5_">
		<use xlink:href="#SVGID_4_"  overflow="visible"/>
	</clipPath>
	
		<linearGradient id="SVGID_6_" gradientUnits="userSpaceOnUse" x1="-310.6558" y1="177.4023" x2="-310.4784" y2="177.4023" gradientTransform="matrix(49.9715 0 0 -49.9715 15535.6563 8897.7188)">
		<stop  offset="0" style="stop-color:#FFE100"/>
		<stop  offset="1" style="stop-color:#F6733C"/>
	</linearGradient>
	<rect x="11.252" y="24.479" clip-path="url(#SVGID_5_)" fill="url(#SVGID_6_)" width="9.848" height="16.266"/>
</g>
<g>
	<defs>
		<path id="SVGID_7_" d="M24.742,8.168C23.801,8.73,22.87,9.292,21.93,9.863l1.591,2.757c0.681-1.51,1.183-3.04,1.805-4.643
			C25.019,8.076,24.853,8.102,24.742,8.168"/>
	</defs>
	<clipPath id="SVGID_8_">
		<use xlink:href="#SVGID_7_"  overflow="visible"/>
	</clipPath>
	
		<linearGradient id="SVGID_9_" gradientUnits="userSpaceOnUse" x1="-306.0654" y1="184.6035" x2="-305.8881" y2="184.6035" gradientTransform="matrix(9.1577 15.8616 15.8616 -9.1577 -102.2656 6554.418)">
		<stop  offset="0" style="stop-color:#189DF8"/>
		<stop  offset="1" style="stop-color:#9542AA"/>
	</linearGradient>
	<polygon clip-path="url(#SVGID_8_)" fill="url(#SVGID_9_)" points="24.478,6.507 27.337,11.459 22.779,14.092 19.919,9.138 	"/>
</g>
<g>
	<defs>
		<path id="SVGID_10_" d="M26.327,3.934c-0.527-0.208-1.094-0.4-1.627-0.651c-0.297-0.14-0.667-0.379-0.778-0.573
			c-0.257-0.445,0.304-0.693,0.882-0.472c0.871,0.333,1.752,0.631,2.62,0.976c0.572,0.227,0.807,0.508,0.77,0.909
			c-0.043,0.473-0.147,0.926-0.236,1.385c-0.039,0.199-0.106,0.389-0.185,0.666C26.329,4.963,26.329,4.963,26.327,3.934 M40.79,1
			L19.949,1.025H19.92c-1.381,0.003-2.243,1.499-1.552,2.695L20.88,8.07c1.477-0.864,2.865-1.727,4.352-2.623
			c2.226,1.931,4.298,3.892,6.52,5.851c2.285-0.486,4.842-0.198,7.633,0.906c2.322,0.918,4.24,2.201,5.658,3.794
			c2.957,3.327,2.178,6.48-1.201,7.503c-3.422,1.035-8.76-0.364-12.282-3.267c-3.444-2.839-4.594-6.55-1.072-8.51
			c-0.458-0.423-0.925-0.86-1.403-1.294C28.6,9.99,28.105,9.553,27.513,9.023c-0.125,0.203-0.239,0.339-0.301,0.5
			c-0.737,1.897-1.465,3.799-2.205,5.695l4.495,7.786c1.093,1.893,3.112,3.058,5.298,3.057l22.264-0.012
			c1.375-0.002,2.256-1.481,1.584-2.683c-0.017-0.03-0.033-0.06-0.051-0.089L48.205,5.278C46.676,2.631,43.852,1.001,40.795,1H40.79
			z"/>
	</defs>
	<clipPath id="SVGID_11_">
		<use xlink:href="#SVGID_10_"  overflow="visible"/>
	</clipPath>
	
		<linearGradient id="SVGID_12_" gradientUnits="userSpaceOnUse" x1="-315.0288" y1="177.3945" x2="-314.8516" y2="177.3945" gradientTransform="matrix(114.8999 199.0124 199.0124 -114.8999 921.25 83073.3125)">
		<stop  offset="0" style="stop-color:#189DF8"/>
		<stop  offset="1" style="stop-color:#9542AA"/>
	</linearGradient>
	<polygon clip-path="url(#SVGID_11_)" fill="url(#SVGID_12_)" points="48.908,-17.031 70.17,19.796 28.087,44.093 6.825,7.265 	"/>
</g>
<g>
	<defs>
		<path id="SVGID_13_" d="M33.311,12.718c0.705,0.642,1.424,1.281,2.113,1.929c0.349,0.328,0.641,0.494,1.2,0.536
			c2.153,0.161,4.227,1.626,4.368,3.089c0.144,1.478-2.076,2.056-4.314,0.936c-2.117-1.06-2.891-2.293-2.168-3.429
			c0.06-0.093,0.109-0.191,0.164-0.286c-0.912-0.824-1.779-1.605-2.703-2.441c-2.35,1.137-2.38,4.107,1.186,6.864
			c2.785,2.153,7.617,3.461,10.314,1.918c2.447-1.4,1.739-4.472-1.57-6.931c-1.993-1.481-5.063-2.494-7.082-2.494
			C34.193,12.409,33.67,12.507,33.311,12.718"/>
	</defs>
	<clipPath id="SVGID_14_">
		<use xlink:href="#SVGID_13_"  overflow="visible"/>
	</clipPath>
	
		<linearGradient id="SVGID_15_" gradientUnits="userSpaceOnUse" x1="-314.0698" y1="178.373" x2="-313.8925" y2="178.373" gradientTransform="matrix(37.705 65.3071 65.3071 -37.705 227.25 27248.2969)">
		<stop  offset="0" style="stop-color:#189DF8"/>
		<stop  offset="1" style="stop-color:#9542AA"/>
	</linearGradient>
	<polygon clip-path="url(#SVGID_14_)" fill="url(#SVGID_15_)" points="41.836,5.339 50.667,20.635 33.672,30.446 24.842,15.151 	"/>
</g>
<g>
	<defs>
		<path id="SVGID_16_" d="M28.548,42.575c2.583-4.474,9.379-7.981,15.821-7.981c4.346,0,6.264,1.359,7.059,3.245l-5.707,2.413
			c-0.582-1.097-1.617-1.776-3.654-1.776c-2.977,0-6.125,1.819-7.441,4.1c-1.329,2.304-0.271,4.102,2.707,4.102
			c2.219,0,3.955-0.746,5.877-1.864l3.119,2.281c-3.156,1.994-6.709,3.464-11.42,3.464C28.833,50.558,25.877,47.202,28.548,42.575
			 M34.813,29c-2.184,0-4.201,1.211-5.293,3.103L18.384,51.422c-0.69,1.197,0.16,2.746,1.541,2.746h0.052l20.814-0.019
			c3.056-0.001,5.878-1.636,7.406-4.28l10.416-18.023c0.012-0.02,0.021-0.087,0.033-0.107C59.328,30.537,58.447,29,57.066,29H34.813
			z"/>
	</defs>
	<clipPath id="SVGID_17_">
		<use xlink:href="#SVGID_16_"  overflow="visible"/>
	</clipPath>
	
		<linearGradient id="SVGID_18_" gradientUnits="userSpaceOnUse" x1="-314.9673" y1="177.2803" x2="-314.79" y2="177.2803" gradientTransform="matrix(229.884 0 0 -229.884 72424.125 40795.5)">
		<stop  offset="0" style="stop-color:#FF9933"/>
		<stop  offset="0.1114" style="stop-color:#FB7E43"/>
		<stop  offset="0.2924" style="stop-color:#F65959"/>
		<stop  offset="0.4737" style="stop-color:#F13C6A"/>
		<stop  offset="0.653" style="stop-color:#EE2876"/>
		<stop  offset="0.8296" style="stop-color:#ED1B7E"/>
		<stop  offset="1" style="stop-color:#EC1780"/>
	</linearGradient>
	<rect x="17.694" y="29" clip-path="url(#SVGID_17_)" fill="url(#SVGID_18_)" width="41.634" height="25.168"/>
</g>
</svg>
