<?xml version="1.0" encoding="utf-8"?>
<!-- Generator: Adobe Illustrator 16.0.0, SVG Export Plug-In . SVG Version: 6.00 Build 0)  -->
<!DOCTYPE svg PUBLIC "-//W3C//DTD SVG 1.1//EN" "http://www.w3.org/Graphics/SVG/1.1/DTD/svg11.dtd">
<svg version="1.1" id="Layer_1" xmlns="http://www.w3.org/2000/svg" xmlns:xlink="http://www.w3.org/1999/xlink" x="0px" y="0px"
	 width="60px" height="60px" viewBox="0 0 60 60" enable-background="new 0 0 60 60" xml:space="preserve">
<g id="mailru">
	<path id="bg_4_" fill="#168DE2" d="M54.167,1H5.833C3.175,1,1,3.175,1,5.833v48.334C1,56.826,3.175,59,5.833,59h48.334
		C56.826,59,59,56.826,59,54.167V5.833C59,3.175,56.826,1,54.167,1z"/>
	<path id="icon" fill="#FFFFFF" d="M37.825,29.792c-0.257-5.009-3.976-8.021-8.467-8.021h-0.169c-5.183,0-8.057,4.076-8.057,8.706
		c0,5.183,3.477,8.457,8.037,8.457c5.083,0,8.425-3.724,8.667-8.127L37.825,29.792L37.825,29.792z M29.214,17.288
		c3.463,0,6.72,1.531,9.109,3.928v0.009c0-1.15,0.774-2.018,1.85-2.018l0.272-0.002c1.681,0,2.025,1.591,2.025,2.095l0.008,17.89
		c-0.119,1.172,1.209,1.775,1.945,1.023c2.873-2.952,6.309-15.176-1.785-22.258c-7.545-6.603-17.667-5.516-23.051-1.805
		c-5.724,3.947-9.385,12.684-5.828,20.89c3.878,8.949,14.974,11.619,21.569,8.956c3.34-1.348,4.882,3.166,1.413,4.643
		c-5.239,2.23-19.826,2.006-26.64-9.799c-4.604-7.969-4.36-21.991,7.851-29.256c9.34-5.559,21.654-4.021,29.081,3.734
		c7.762,8.107,7.309,23.29-0.263,29.19c-3.43,2.682-8.524,0.073-8.492-3.834l-0.035-1.277c-2.389,2.369-5.567,3.752-9.03,3.752
		c-6.842,0-12.862-6.019-12.862-12.86C16.352,23.379,22.372,17.288,29.214,17.288L29.214,17.288"/>
</g>
</svg>
