status Success 21.04.2016 11:38:06
simpla/files/backup/simpla_2016_04_21_11_38_06.sql
----------------------------------------

status Success 21.04.2016 11:44:01
simpla/files/backup/simpla_2016_04_21_11_43_41.sql
----------------------------------------

status Success 21.04.2016 09:56:58
simpla/files/backup/simpla_2016_04_21_9_56_44.sql
----------------------------------------

status Success 21.04.2016 21:00:39
simpla/files/backup/simpla_2016_04_21_21_00_09.sql
----------------------------------------

status Success 22.04.2016 21:00:54
simpla/files/backup/simpla_2016_04_22_21_00_03.sql
----------------------------------------

status Success 23.04.2016 21:00:34
simpla/files/backup/simpla_2016_04_23_21_00_05.sql
----------------------------------------

status Success 24.04.2016 21:00:35
simpla/files/backup/simpla_2016_04_24_21_00_02.sql
----------------------------------------

status Success 25.04.2016 21:00:39
simpla/files/backup/simpla_2016_04_25_21_00_04.sql
----------------------------------------

status Success 26.04.2016 21:00:37
simpla/files/backup/simpla_2016_04_26_21_00_05.sql
----------------------------------------

status Success 27.04.2016 21:00:38
simpla/files/backup/simpla_2016_04_27_21_00_06.sql
----------------------------------------

status Success 28.04.2016 21:00:37
simpla/files/backup/simpla_2016_04_28_21_00_04.sql
----------------------------------------

status Success 29.04.2016 21:00:44
simpla/files/backup/simpla_2016_04_29_21_00_18.sql
----------------------------------------

status Success 30.04.2016 21:00:36
simpla/files/backup/simpla_2016_04_30_21_00_01.sql
----------------------------------------

status Success 01.05.2016 21:00:34
simpla/files/backup/simpla_2016_05_01_21_00_09.sql
----------------------------------------

status Success 02.05.2016 21:00:39
simpla/files/backup/simpla_2016_05_02_21_00_04.sql
----------------------------------------

status Success 03.05.2016 21:00:32
simpla/files/backup/simpla_2016_05_03_21_00_06.sql
----------------------------------------

status Success 04.05.2016 21:00:35
simpla/files/backup/simpla_2016_05_04_21_00_04.sql
----------------------------------------

status Success 05.05.2016 21:00:38
simpla/files/backup/simpla_2016_05_05_21_00_03.sql
----------------------------------------

status Success 06.05.2016 21:00:47
simpla/files/backup/simpla_2016_05_06_21_00_04.sql
----------------------------------------

status Success 07.05.2016 21:00:42
simpla/files/backup/simpla_2016_05_07_21_00_03.sql
----------------------------------------

status Success 08.05.2016 21:00:48
simpla/files/backup/simpla_2016_05_08_21_00_04.sql
----------------------------------------

status Success 09.05.2016 21:00:34
simpla/files/backup/simpla_2016_05_09_21_00_04.sql
----------------------------------------

status Success 10.05.2016 21:00:38
simpla/files/backup/simpla_2016_05_10_21_00_01.sql
----------------------------------------

status Success 11.05.2016 21:00:56
simpla/files/backup/simpla_2016_05_11_21_00_04.sql
----------------------------------------

status Success 12.05.2016 21:00:58
simpla/files/backup/simpla_2016_05_12_21_00_22.sql
----------------------------------------

status Success 13.05.2016 21:00:43
simpla/files/backup/simpla_2016_05_13_21_00_03.sql
----------------------------------------

status Success 14.05.2016 21:00:55
simpla/files/backup/simpla_2016_05_14_21_00_02.sql
----------------------------------------

status Success 15.05.2016 21:00:38
simpla/files/backup/simpla_2016_05_15_21_00_01.sql
----------------------------------------

status Success 16.05.2016 21:00:39
simpla/files/backup/simpla_2016_05_16_21_00_05.sql
----------------------------------------

status Success 17.05.2016 21:00:55
simpla/files/backup/simpla_2016_05_17_21_00_03.sql
----------------------------------------

status Success 18.05.2016 21:00:46
simpla/files/backup/simpla_2016_05_18_21_00_07.sql
----------------------------------------

status Success 19.05.2016 21:00:43
simpla/files/backup/simpla_2016_05_19_21_00_04.sql
----------------------------------------

status Success 20.05.2016 21:00:43
simpla/files/backup/simpla_2016_05_20_21_00_04.sql
----------------------------------------

status Success 21.05.2016 21:00:46
simpla/files/backup/simpla_2016_05_21_21_00_03.sql
----------------------------------------

status Success 22.05.2016 21:00:45
simpla/files/backup/simpla_2016_05_22_21_00_04.sql
----------------------------------------

status Success 23.05.2016 21:00:51
simpla/files/backup/simpla_2016_05_23_21_00_10.sql
----------------------------------------

status Success 24.05.2016 21:00:52
simpla/files/backup/simpla_2016_05_24_21_00_04.sql
----------------------------------------

status Success 25.05.2016 21:00:40
simpla/files/backup/simpla_2016_05_25_21_00_03.sql
----------------------------------------

status Success 26.05.2016 21:00:41
simpla/files/backup/simpla_2016_05_26_21_00_02.sql
----------------------------------------

status Success 27.05.2016 21:00:47
simpla/files/backup/simpla_2016_05_27_21_00_03.sql
----------------------------------------

status Success 28.05.2016 21:00:43
simpla/files/backup/simpla_2016_05_28_21_00_05.sql
----------------------------------------

status Success 29.05.2016 21:00:49
simpla/files/backup/simpla_2016_05_29_21_00_03.sql
----------------------------------------

status Success 30.05.2016 21:00:46
simpla/files/backup/simpla_2016_05_30_21_00_05.sql
----------------------------------------

status Success 31.05.2016 21:00:54
simpla/files/backup/simpla_2016_05_31_21_00_05.sql
----------------------------------------

status Success 01.06.2016 21:00:48
simpla/files/backup/simpla_2016_06_01_21_00_03.sql
----------------------------------------

status Success 02.06.2016 21:00:51
simpla/files/backup/simpla_2016_06_02_21_00_06.sql
----------------------------------------

status Success 03.06.2016 21:00:57
simpla/files/backup/simpla_2016_06_03_21_00_05.sql
----------------------------------------

status Success 04.06.2016 21:00:46
simpla/files/backup/simpla_2016_06_04_21_00_02.sql
----------------------------------------

status Success 05.06.2016 21:00:54
simpla/files/backup/simpla_2016_06_05_21_00_03.sql
----------------------------------------

status Success 06.06.2016 21:00:49
simpla/files/backup/simpla_2016_06_06_21_00_08.sql
----------------------------------------

status Success 07.06.2016 21:00:50
simpla/files/backup/simpla_2016_06_07_21_00_06.sql
----------------------------------------

status Success 08.06.2016 21:00:49
simpla/files/backup/simpla_2016_06_08_21_00_05.sql
----------------------------------------

status Success 09.06.2016 21:00:33
simpla/files/backup/simpla_2016_06_09_21_00_01.sql
----------------------------------------

status Success 10.06.2016 21:00:47
simpla/files/backup/simpla_2016_06_10_21_00_07.sql
----------------------------------------

status Success 11.06.2016 21:00:35
simpla/files/backup/simpla_2016_06_11_21_00_02.sql
----------------------------------------

status Success 12.06.2016 21:00:38
simpla/files/backup/simpla_2016_06_12_21_00_02.sql
----------------------------------------

status Success 13.06.2016 21:01:05
simpla/files/backup/simpla_2016_06_13_21_00_04.sql
----------------------------------------

status Success 14.06.2016 21:00:56
simpla/files/backup/simpla_2016_06_14_21_00_04.sql
----------------------------------------

status Success 15.06.2016 21:00:59
simpla/files/backup/simpla_2016_06_15_21_00_08.sql
----------------------------------------

status Success 16.06.2016 21:00:52
simpla/files/backup/simpla_2016_06_16_21_00_05.sql
----------------------------------------

status Success 17.06.2016 21:00:46
simpla/files/backup/simpla_2016_06_17_21_00_03.sql
----------------------------------------

status Success 18.06.2016 21:00:48
simpla/files/backup/simpla_2016_06_18_21_00_04.sql
----------------------------------------

status Success 19.06.2016 21:00:49
simpla/files/backup/simpla_2016_06_19_21_00_03.sql
----------------------------------------

status Success 20.06.2016 21:00:52
simpla/files/backup/simpla_2016_06_20_21_00_04.sql
----------------------------------------

status Success 21.06.2016 21:00:51
simpla/files/backup/simpla_2016_06_21_21_00_04.sql
----------------------------------------

status Success 22.06.2016 21:00:41
simpla/files/backup/simpla_2016_06_22_21_00_03.sql
----------------------------------------

status Success 23.06.2016 21:00:50
simpla/files/backup/simpla_2016_06_23_21_00_13.sql
----------------------------------------

status Success 24.06.2016 21:00:39
simpla/files/backup/simpla_2016_06_24_21_00_02.sql
----------------------------------------

status Success 25.06.2016 21:00:43
simpla/files/backup/simpla_2016_06_25_21_00_03.sql
----------------------------------------

status Success 26.06.2016 21:00:46
simpla/files/backup/simpla_2016_06_26_21_00_04.sql
----------------------------------------

status Success 27.06.2016 21:00:52
simpla/files/backup/simpla_2016_06_27_21_00_01.sql
----------------------------------------

status Success 28.06.2016 21:00:49
simpla/files/backup/simpla_2016_06_28_21_00_06.sql
----------------------------------------

status Success 29.06.2016 21:00:44
simpla/files/backup/simpla_2016_06_29_21_00_02.sql
----------------------------------------

status Success 30.06.2016 21:00:46
simpla/files/backup/simpla_2016_06_30_21_00_01.sql
----------------------------------------

status Success 01.07.2016 21:01:03
simpla/files/backup/simpla_2016_07_01_21_00_09.sql
----------------------------------------

status Success 02.07.2016 21:00:34
simpla/files/backup/simpla_2016_07_02_21_00_04.sql
----------------------------------------

status Success 03.07.2016 21:00:39
simpla/files/backup/simpla_2016_07_03_21_00_03.sql
----------------------------------------

status Success 04.07.2016 21:00:41
simpla/files/backup/simpla_2016_07_04_21_00_03.sql
----------------------------------------

status Success 05.07.2016 21:00:40
simpla/files/backup/simpla_2016_07_05_21_00_03.sql
----------------------------------------

status Success 06.07.2016 21:00:37
simpla/files/backup/simpla_2016_07_06_21_00_04.sql
----------------------------------------

status Success 07.07.2016 21:00:46
simpla/files/backup/simpla_2016_07_07_21_00_03.sql
----------------------------------------

status Success 08.07.2016 21:01:52
simpla/files/backup/simpla_2016_07_08_21_00_34.sql
----------------------------------------

status Success 09.07.2016 21:01:28
simpla/files/backup/simpla_2016_07_09_21_00_31.sql
----------------------------------------

status Success 10.07.2016 21:01:07
simpla/files/backup/simpla_2016_07_10_21_00_17.sql
----------------------------------------

status Success 11.07.2016 21:01:21
simpla/files/backup/simpla_2016_07_11_21_00_29.sql
----------------------------------------

status Success 12.07.2016 21:01:00
simpla/files/backup/simpla_2016_07_12_21_00_24.sql
----------------------------------------

status Success 13.07.2016 21:01:24
simpla/files/backup/simpla_2016_07_13_21_00_28.sql
----------------------------------------

status Success 14.07.2016 21:01:08
simpla/files/backup/simpla_2016_07_14_21_00_21.sql
----------------------------------------

status Success 15.07.2016 21:01:20
simpla/files/backup/simpla_2016_07_15_21_00_32.sql
----------------------------------------

status Success 16.07.2016 21:06:08
simpla/files/backup/simpla_2016_07_16_21_00_20.sql
----------------------------------------

status Success 17.07.2016 21:00:40
simpla/files/backup/simpla_2016_07_17_21_00_05.sql
----------------------------------------

status Success 18.07.2016 21:00:51
simpla/files/backup/simpla_2016_07_18_21_00_20.sql
----------------------------------------

status Success 19.07.2016 21:01:27
simpla/files/backup/simpla_2016_07_19_21_00_30.sql
----------------------------------------

status Success 20.07.2016 21:01:20
simpla/files/backup/simpla_2016_07_20_21_00_26.sql
----------------------------------------

status Success 21.07.2016 21:01:42
simpla/files/backup/simpla_2016_07_21_21_00_32.sql
----------------------------------------

status Success 22.07.2016 21:01:29
simpla/files/backup/simpla_2016_07_22_21_00_39.sql
----------------------------------------

status Success 23.07.2016 21:01:19
simpla/files/backup/simpla_2016_07_23_21_00_22.sql
----------------------------------------

status Success 24.07.2016 21:00:57
simpla/files/backup/simpla_2016_07_24_21_00_18.sql
----------------------------------------

status Success 25.07.2016 21:01:25
simpla/files/backup/simpla_2016_07_25_21_00_32.sql
----------------------------------------

status Success 26.07.2016 21:01:14
simpla/files/backup/simpla_2016_07_26_21_00_25.sql
----------------------------------------

status Success 27.07.2016 21:01:27
simpla/files/backup/simpla_2016_07_27_21_00_42.sql
----------------------------------------

status Success 28.07.2016 21:00:52
simpla/files/backup/simpla_2016_07_28_21_00_13.sql
----------------------------------------

status Success 29.07.2016 21:00:48
simpla/files/backup/simpla_2016_07_29_21_00_14.sql
----------------------------------------

status Success 30.07.2016 21:00:51
simpla/files/backup/simpla_2016_07_30_21_00_11.sql
----------------------------------------

status Success 31.07.2016 21:01:07
simpla/files/backup/simpla_2016_07_31_21_00_24.sql
----------------------------------------

status Success 01.08.2016 21:01:27
simpla/files/backup/simpla_2016_08_01_21_00_31.sql
----------------------------------------

status Success 02.08.2016 21:01:13
simpla/files/backup/simpla_2016_08_02_21_00_34.sql
----------------------------------------

status Success 03.08.2016 21:00:57
simpla/files/backup/simpla_2016_08_03_21_00_23.sql
----------------------------------------

status Success 04.08.2016 21:01:32
simpla/files/backup/simpla_2016_08_04_21_00_26.sql
----------------------------------------

status Success 05.08.2016 21:01:17
simpla/files/backup/simpla_2016_08_05_21_00_23.sql
----------------------------------------

status Success 06.08.2016 21:01:26
simpla/files/backup/simpla_2016_08_06_21_00_29.sql
----------------------------------------

status Success 07.08.2016 21:01:12
simpla/files/backup/simpla_2016_08_07_21_00_27.sql
----------------------------------------

status Success 08.08.2016 21:01:01
simpla/files/backup/simpla_2016_08_08_21_00_27.sql
----------------------------------------

status Success 09.08.2016 21:01:10
simpla/files/backup/simpla_2016_08_09_21_00_23.sql
----------------------------------------

status Success 10.08.2016 21:01:05
simpla/files/backup/simpla_2016_08_10_21_00_25.sql
----------------------------------------

status Success 11.08.2016 21:00:59
simpla/files/backup/simpla_2016_08_11_21_00_27.sql
----------------------------------------

status Success 12.08.2016 21:00:37
simpla/files/backup/simpla_2016_08_12_21_00_36.sql
----------------------------------------

status Success 13.08.2016 21:01:12
simpla/files/backup/simpla_2016_08_13_21_00_20.sql
----------------------------------------

status Success 14.08.2016 21:00:52
simpla/files/backup/simpla_2016_08_14_21_00_20.sql
----------------------------------------

status Success 15.08.2016 21:01:15
simpla/files/backup/simpla_2016_08_15_21_00_35.sql
----------------------------------------

status Success 16.08.2016 21:01:20
simpla/files/backup/simpla_2016_08_16_21_00_35.sql
----------------------------------------

status Success 17.08.2016 21:01:17
simpla/files/backup/simpla_2016_08_17_21_00_23.sql
----------------------------------------

status Success 18.08.2016 21:01:08
simpla/files/backup/simpla_2016_08_18_21_00_26.sql
----------------------------------------

status Success 19.08.2016 21:01:26
simpla/files/backup/simpla_2016_08_19_21_00_30.sql
----------------------------------------

status Success 20.08.2016 21:01:01
simpla/files/backup/simpla_2016_08_20_21_00_20.sql
----------------------------------------

status Success 21.08.2016 21:00:54
simpla/files/backup/simpla_2016_08_21_21_00_22.sql
----------------------------------------

status Success 22.08.2016 21:01:00
simpla/files/backup/simpla_2016_08_22_21_00_27.sql
----------------------------------------

status Success 23.08.2016 21:02:47
simpla/files/backup/simpla_2016_08_23_21_01_23.sql
----------------------------------------

status Success 24.08.2016 21:01:06
simpla/files/backup/simpla_2016_08_24_21_00_27.sql
----------------------------------------

status Success 25.08.2016 21:01:16
simpla/files/backup/simpla_2016_08_25_21_00_27.sql
----------------------------------------

status Success 26.08.2016 21:00:58
simpla/files/backup/simpla_2016_08_26_21_00_17.sql
----------------------------------------

status Success 27.08.2016 21:01:22
simpla/files/backup/simpla_2016_08_27_21_00_31.sql
----------------------------------------

status Success 28.08.2016 21:00:57
simpla/files/backup/simpla_2016_08_28_21_00_16.sql
----------------------------------------

status Success 29.08.2016 21:01:44
simpla/files/backup/simpla_2016_08_29_21_00_40.sql
----------------------------------------

status Success 30.08.2016 21:01:01
simpla/files/backup/simpla_2016_08_30_21_00_18.sql
----------------------------------------

status Success 31.08.2016 21:01:25
simpla/files/backup/simpla_2016_08_31_21_00_34.sql
----------------------------------------

status Success 01.09.2016 21:00:49
simpla/files/backup/simpla_2016_09_01_21_00_09.sql
----------------------------------------

status Success 02.09.2016 21:01:16
simpla/files/backup/simpla_2016_09_02_21_00_28.sql
----------------------------------------

status Success 03.09.2016 21:00:55
simpla/files/backup/simpla_2016_09_03_21_00_22.sql
----------------------------------------

status Success 04.09.2016 21:00:52
simpla/files/backup/simpla_2016_09_04_21_00_10.sql
----------------------------------------

status Success 05.09.2016 21:01:03
simpla/files/backup/simpla_2016_09_05_21_00_32.sql
----------------------------------------

status Success 06.09.2016 21:00:50
simpla/files/backup/simpla_2016_09_06_21_00_17.sql
----------------------------------------

status Success 07.09.2016 21:01:41
simpla/files/backup/simpla_2016_09_07_21_00_45.sql
----------------------------------------

status Success 08.09.2016 21:01:32
simpla/files/backup/simpla_2016_09_08_21_00_33.sql
----------------------------------------

status Success 09.09.2016 21:01:50
simpla/files/backup/simpla_2016_09_09_21_00_46.sql
----------------------------------------

status Success 10.09.2016 21:02:26
simpla/files/backup/simpla_2016_09_10_21_01_14.sql
----------------------------------------

status Success 11.09.2016 21:01:10
simpla/files/backup/simpla_2016_09_11_21_00_31.sql
----------------------------------------

status Success 12.09.2016 21:01:42
simpla/files/backup/simpla_2016_09_12_21_00_38.sql
----------------------------------------

status Success 13.09.2016 21:00:54
simpla/files/backup/simpla_2016_09_13_21_00_14.sql
----------------------------------------

status Success 14.09.2016 21:01:13
simpla/files/backup/simpla_2016_09_14_21_00_28.sql
----------------------------------------

status Success 15.09.2016 21:00:58
simpla/files/backup/simpla_2016_09_15_21_00_24.sql
----------------------------------------

status Success 16.09.2016 21:01:17
simpla/files/backup/simpla_2016_09_16_21_00_33.sql
----------------------------------------

status Success 17.09.2016 21:01:07
simpla/files/backup/simpla_2016_09_17_21_00_29.sql
----------------------------------------

status Success 18.09.2016 21:01:12
simpla/files/backup/simpla_2016_09_18_21_00_31.sql
----------------------------------------

status Success 19.09.2016 21:01:18
simpla/files/backup/simpla_2016_09_19_21_00_25.sql
----------------------------------------

status Success 20.09.2016 21:01:25
simpla/files/backup/simpla_2016_09_20_21_00_37.sql
----------------------------------------

status Success 21.09.2016 21:01:13
simpla/files/backup/simpla_2016_09_21_21_00_24.sql
----------------------------------------

status Success 22.09.2016 21:01:01
simpla/files/backup/simpla_2016_09_22_21_00_20.sql
----------------------------------------

status Success 23.09.2016 21:01:22
simpla/files/backup/simpla_2016_09_23_21_00_24.sql
----------------------------------------

status Success 24.09.2016 21:01:32
simpla/files/backup/simpla_2016_09_24_21_00_31.sql
----------------------------------------

status Success 25.09.2016 21:01:22
simpla/files/backup/simpla_2016_09_25_21_00_30.sql
----------------------------------------

status Success 26.09.2016 21:01:25
simpla/files/backup/simpla_2016_09_26_21_00_37.sql
----------------------------------------

status Success 27.09.2016 21:01:22
simpla/files/backup/simpla_2016_09_27_21_00_34.sql
----------------------------------------

status Success 28.09.2016 21:01:22
simpla/files/backup/simpla_2016_09_28_21_00_32.sql
----------------------------------------

status Success 29.09.2016 21:01:28
simpla/files/backup/simpla_2016_09_29_21_00_33.sql
----------------------------------------

status Success 30.09.2016 21:01:36
simpla/files/backup/simpla_2016_09_30_21_00_35.sql
----------------------------------------

status Success 01.10.2016 21:01:01
simpla/files/backup/simpla_2016_10_01_21_00_23.sql
----------------------------------------

status Success 02.10.2016 21:01:23
simpla/files/backup/simpla_2016_10_02_21_00_31.sql
----------------------------------------

status Success 03.10.2016 21:01:25
simpla/files/backup/simpla_2016_10_03_21_00_31.sql
----------------------------------------

status Success 04.10.2016 21:01:14
simpla/files/backup/simpla_2016_10_04_21_00_26.sql
----------------------------------------

status Success 05.10.2016 21:01:01
simpla/files/backup/simpla_2016_10_05_21_00_29.sql
----------------------------------------

status Success 06.10.2016 21:01:16
simpla/files/backup/simpla_2016_10_06_21_00_31.sql
----------------------------------------

status Success 07.10.2016 21:01:58
simpla/files/backup/simpla_2016_10_07_21_00_40.sql
----------------------------------------

status Success 08.10.2016 21:01:06
simpla/files/backup/simpla_2016_10_08_21_00_27.sql
----------------------------------------

status Success 09.10.2016 21:01:04
simpla/files/backup/simpla_2016_10_09_21_00_28.sql
----------------------------------------

status Success 10.10.2016 21:01:31
simpla/files/backup/simpla_2016_10_10_21_00_39.sql
----------------------------------------

status Success 11.10.2016 21:00:57
simpla/files/backup/simpla_2016_10_11_21_00_21.sql
----------------------------------------

status Success 12.10.2016 21:01:15
simpla/files/backup/simpla_2016_10_12_21_00_33.sql
----------------------------------------

status Success 13.10.2016 21:01:01
simpla/files/backup/simpla_2016_10_13_21_00_24.sql
----------------------------------------

status Success 14.10.2016 21:01:40
simpla/files/backup/simpla_2016_10_14_21_00_42.sql
----------------------------------------

status Success 15.10.2016 21:01:12
simpla/files/backup/simpla_2016_10_15_21_00_26.sql
----------------------------------------

status Success 16.10.2016 21:01:32
simpla/files/backup/simpla_2016_10_16_21_00_36.sql
----------------------------------------

status Success 17.10.2016 21:01:30
simpla/files/backup/simpla_2016_10_17_21_00_34.sql
----------------------------------------

status Success 18.10.2016 21:01:13
simpla/files/backup/simpla_2016_10_18_21_00_28.sql
----------------------------------------

status Success 19.10.2016 21:01:36
simpla/files/backup/simpla_2016_10_19_21_00_36.sql
----------------------------------------

status Success 20.10.2016 21:01:26
simpla/files/backup/simpla_2016_10_20_21_00_30.sql
----------------------------------------

status Success 21.10.2016 21:01:35
simpla/files/backup/simpla_2016_10_21_21_00_39.sql
----------------------------------------

status Success 22.10.2016 21:01:02
simpla/files/backup/simpla_2016_10_22_21_00_27.sql
----------------------------------------

status Success 23.10.2016 21:01:09
simpla/files/backup/simpla_2016_10_23_21_00_28.sql
----------------------------------------

status Success 24.10.2016 21:01:23
simpla/files/backup/simpla_2016_10_24_21_00_28.sql
----------------------------------------

status Success 25.10.2016 21:01:39
simpla/files/backup/simpla_2016_10_25_21_00_44.sql
----------------------------------------

status Success 26.10.2016 21:01:32
simpla/files/backup/simpla_2016_10_26_21_00_28.sql
----------------------------------------

status Success 27.10.2016 21:01:45
simpla/files/backup/simpla_2016_10_27_21_00_29.sql
----------------------------------------

status Success 28.10.2016 21:01:10
simpla/files/backup/simpla_2016_10_28_21_00_16.sql
----------------------------------------

status Success 29.10.2016 21:01:18
simpla/files/backup/simpla_2016_10_29_21_00_25.sql
----------------------------------------

status Success 30.10.2016 21:01:31
simpla/files/backup/simpla_2016_10_30_21_00_34.sql
----------------------------------------

status Success 31.10.2016 21:01:14
simpla/files/backup/simpla_2016_10_31_21_00_27.sql
----------------------------------------

status Success 01.11.2016 21:01:45
simpla/files/backup/simpla_2016_11_01_21_00_33.sql
----------------------------------------

status Success 02.11.2016 21:01:10
simpla/files/backup/simpla_2016_11_02_21_00_24.sql
----------------------------------------

status Success 03.11.2016 21:01:37
simpla/files/backup/simpla_2016_11_03_21_00_36.sql
----------------------------------------

status Success 04.11.2016 21:01:03
simpla/files/backup/simpla_2016_11_04_21_00_20.sql
----------------------------------------

status Success 05.11.2016 21:01:46
simpla/files/backup/simpla_2016_11_05_21_00_48.sql
----------------------------------------

status Success 06.11.2016 21:01:34
simpla/files/backup/simpla_2016_11_06_21_00_34.sql
----------------------------------------

status Success 07.11.2016 21:01:25
simpla/files/backup/simpla_2016_11_07_21_00_31.sql
----------------------------------------

status Success 08.11.2016 21:01:45
simpla/files/backup/simpla_2016_11_08_21_00_37.sql
----------------------------------------

status Success 09.11.2016 21:01:20
simpla/files/backup/simpla_2016_11_09_21_00_28.sql
----------------------------------------

status Success 10.11.2016 21:01:26
simpla/files/backup/simpla_2016_11_10_21_00_34.sql
----------------------------------------

status Success 11.11.2016 21:01:32
simpla/files/backup/simpla_2016_11_11_21_00_31.sql
----------------------------------------

status Success 12.11.2016 21:01:26
simpla/files/backup/simpla_2016_11_12_21_00_28.sql
----------------------------------------

status Success 13.11.2016 21:01:18
simpla/files/backup/simpla_2016_11_13_21_00_22.sql
----------------------------------------

status Success 14.11.2016 21:01:30
simpla/files/backup/simpla_2016_11_14_21_00_26.sql
----------------------------------------

status Success 15.11.2016 21:01:37
simpla/files/backup/simpla_2016_11_15_21_00_34.sql
----------------------------------------

status Success 16.11.2016 21:01:19
simpla/files/backup/simpla_2016_11_16_21_00_28.sql
----------------------------------------

status Success 17.11.2016 21:01:21
simpla/files/backup/simpla_2016_11_17_21_00_33.sql
----------------------------------------

status Success 18.11.2016 21:01:22
simpla/files/backup/simpla_2016_11_18_21_00_29.sql
----------------------------------------

status Success 19.11.2016 21:01:16
simpla/files/backup/simpla_2016_11_19_21_00_25.sql
----------------------------------------

status Success 20.11.2016 21:00:55
simpla/files/backup/simpla_2016_11_20_21_00_21.sql
----------------------------------------

status Success 21.11.2016 21:01:18
simpla/files/backup/simpla_2016_11_21_21_00_29.sql
----------------------------------------

status Success 22.11.2016 21:01:04
simpla/files/backup/simpla_2016_11_22_21_00_24.sql
----------------------------------------

status Success 23.11.2016 21:01:00
simpla/files/backup/simpla_2016_11_23_21_00_22.sql
----------------------------------------

status Success 24.11.2016 21:01:01
simpla/files/backup/simpla_2016_11_24_21_00_25.sql
----------------------------------------

status Success 25.11.2016 21:01:30
simpla/files/backup/simpla_2016_11_25_21_00_42.sql
----------------------------------------

status Success 26.11.2016 21:01:30
simpla/files/backup/simpla_2016_11_26_21_00_29.sql
----------------------------------------

status Success 27.11.2016 21:00:46
simpla/files/backup/simpla_2016_11_27_21_00_16.sql
----------------------------------------

status Success 28.11.2016 21:01:22
simpla/files/backup/simpla_2016_11_28_21_00_33.sql
----------------------------------------

status Success 29.11.2016 21:01:16
simpla/files/backup/simpla_2016_11_29_21_00_27.sql
----------------------------------------

status Success 30.11.2016 21:01:19
simpla/files/backup/simpla_2016_11_30_21_00_24.sql
----------------------------------------

status Success 01.12.2016 21:00:55
simpla/files/backup/simpla_2016_12_01_21_00_22.sql
----------------------------------------

status Success 02.12.2016 21:01:45
simpla/files/backup/simpla_2016_12_02_21_00_46.sql
----------------------------------------

status Success 03.12.2016 21:01:29
simpla/files/backup/simpla_2016_12_03_21_00_33.sql
----------------------------------------

status Success 04.12.2016 21:01:04
simpla/files/backup/simpla_2016_12_04_21_00_27.sql
----------------------------------------

status Success 05.12.2016 21:01:14
simpla/files/backup/simpla_2016_12_05_21_00_28.sql
----------------------------------------

status Success 06.12.2016 21:01:41
simpla/files/backup/simpla_2016_12_06_21_00_46.sql
----------------------------------------

status Success 07.12.2016 21:01:27
simpla/files/backup/simpla_2016_12_07_21_00_35.sql
----------------------------------------

status Success 08.12.2016 21:01:15
simpla/files/backup/simpla_2016_12_08_21_00_23.sql
----------------------------------------

status Success 09.12.2016 21:01:47
simpla/files/backup/simpla_2016_12_09_21_00_41.sql
----------------------------------------

status Success 10.12.2016 21:01:29
simpla/files/backup/simpla_2016_12_10_21_00_30.sql
----------------------------------------

status Success 11.12.2016 21:01:25
simpla/files/backup/simpla_2016_12_11_21_00_32.sql
----------------------------------------

status Success 12.12.2016 21:01:25
simpla/files/backup/simpla_2016_12_12_21_00_31.sql
----------------------------------------

status Success 13.12.2016 21:01:30
simpla/files/backup/simpla_2016_12_13_21_00_32.sql
----------------------------------------

status Success 14.12.2016 21:01:47
simpla/files/backup/simpla_2016_12_14_21_00_49.sql
----------------------------------------

status Success 15.12.2016 21:01:22
simpla/files/backup/simpla_2016_12_15_21_00_31.sql
----------------------------------------

status Success 16.12.2016 21:01:55
simpla/files/backup/simpla_2016_12_16_21_00_50.sql
----------------------------------------

status Success 17.12.2016 21:01:29
simpla/files/backup/simpla_2016_12_17_21_00_34.sql
----------------------------------------

status Success 18.12.2016 21:01:15
simpla/files/backup/simpla_2016_12_18_21_00_34.sql
----------------------------------------

status Success 19.12.2016 21:01:29
simpla/files/backup/simpla_2016_12_19_21_00_32.sql
----------------------------------------

status Success 20.12.2016 21:01:32
simpla/files/backup/simpla_2016_12_20_21_00_37.sql
----------------------------------------

status Success 21.12.2016 21:01:28
simpla/files/backup/simpla_2016_12_21_21_00_33.sql
----------------------------------------

status Success 22.12.2016 21:01:04
simpla/files/backup/simpla_2016_12_22_21_00_25.sql
----------------------------------------

status Success 23.12.2016 21:01:39
simpla/files/backup/simpla_2016_12_23_21_00_42.sql
----------------------------------------

status Success 24.12.2016 21:01:19
simpla/files/backup/simpla_2016_12_24_21_00_30.sql
----------------------------------------

status Success 25.12.2016 21:01:38
simpla/files/backup/simpla_2016_12_25_21_00_36.sql
----------------------------------------

status Success 26.12.2016 21:01:57
simpla/files/backup/simpla_2016_12_26_21_00_45.sql
----------------------------------------

status Success 27.12.2016 21:01:38
simpla/files/backup/simpla_2016_12_27_21_00_35.sql
----------------------------------------

status Success 28.12.2016 21:01:31
simpla/files/backup/simpla_2016_12_28_21_00_25.sql
----------------------------------------

status Success 29.12.2016 21:01:35
simpla/files/backup/simpla_2016_12_29_21_00_48.sql
----------------------------------------

status Success 30.12.2016 21:02:16
simpla/files/backup/simpla_2016_12_30_21_00_57.sql
----------------------------------------

status Success 31.12.2016 21:01:33
simpla/files/backup/simpla_2016_12_31_21_00_33.sql
----------------------------------------

status Success 01.01.2017 21:00:47
simpla/files/backup/simpla_2017_01_01_21_00_19.sql
----------------------------------------

status Success 02.01.2017 21:01:24
simpla/files/backup/simpla_2017_01_02_21_00_27.sql
----------------------------------------

status Success 03.01.2017 21:00:52
simpla/files/backup/simpla_2017_01_03_21_00_13.sql
----------------------------------------

status Success 04.01.2017 21:01:44
simpla/files/backup/simpla_2017_01_04_21_00_46.sql
----------------------------------------

status Success 05.01.2017 21:01:04
simpla/files/backup/simpla_2017_01_05_21_00_16.sql
----------------------------------------

status Success 06.01.2017 21:01:45
simpla/files/backup/simpla_2017_01_06_21_00_46.sql
----------------------------------------

status Success 07.01.2017 21:01:22
simpla/files/backup/simpla_2017_01_07_21_00_32.sql
----------------------------------------

status Success 08.01.2017 21:01:24
simpla/files/backup/simpla_2017_01_08_21_00_29.sql
----------------------------------------

status Success 09.01.2017 21:01:29
simpla/files/backup/simpla_2017_01_09_21_00_32.sql
----------------------------------------

status Success 10.01.2017 21:01:29
simpla/files/backup/simpla_2017_01_10_21_00_32.sql
----------------------------------------

status Success 11.01.2017 21:01:26
simpla/files/backup/simpla_2017_01_11_21_00_34.sql
----------------------------------------

status Success 12.01.2017 21:01:01
simpla/files/backup/simpla_2017_01_12_21_00_26.sql
----------------------------------------

status Success 13.01.2017 21:02:04
simpla/files/backup/simpla_2017_01_13_21_00_48.sql
----------------------------------------

status Success 14.01.2017 21:01:36
simpla/files/backup/simpla_2017_01_14_21_00_36.sql
----------------------------------------

status Success 15.01.2017 21:01:36
simpla/files/backup/simpla_2017_01_15_21_00_43.sql
----------------------------------------

status Success 16.01.2017 21:00:51
simpla/files/backup/simpla_2017_01_16_21_00_14.sql
----------------------------------------

status Success 17.01.2017 21:01:17
simpla/files/backup/simpla_2017_01_17_21_00_31.sql
----------------------------------------

status Success 18.01.2017 21:01:26
simpla/files/backup/simpla_2017_01_18_21_00_33.sql
----------------------------------------

status Success 19.01.2017 21:01:10
simpla/files/backup/simpla_2017_01_19_21_00_27.sql
----------------------------------------

status Success 20.01.2017 21:01:47
simpla/files/backup/simpla_2017_01_20_21_00_40.sql
----------------------------------------

status Success 21.01.2017 21:01:57
simpla/files/backup/simpla_2017_01_21_21_00_27.sql
----------------------------------------

status Success 22.01.2017 21:02:20
simpla/files/backup/simpla_2017_01_22_21_00_35.sql
----------------------------------------

status Success 23.01.2017 21:02:06
simpla/files/backup/simpla_2017_01_23_21_00_37.sql
----------------------------------------

status Success 24.01.2017 21:00:39
simpla/files/backup/simpla_2017_01_24_21_00_05.sql
----------------------------------------

status Success 25.01.2017 21:02:40
simpla/files/backup/simpla_2017_01_25_21_00_44.sql
----------------------------------------

status Success 26.01.2017 21:02:44
simpla/files/backup/simpla_2017_01_26_21_00_49.sql
----------------------------------------

status Success 27.01.2017 21:04:41
simpla/files/backup/simpla_2017_01_27_21_01_38.sql
----------------------------------------

status Success 28.01.2017 21:03:12
simpla/files/backup/simpla_2017_01_28_21_00_30.sql
----------------------------------------

status Success 29.01.2017 21:03:23
simpla/files/backup/simpla_2017_01_29_21_00_59.sql
----------------------------------------

status Success 30.01.2017 21:03:06
simpla/files/backup/simpla_2017_01_30_21_00_39.sql
----------------------------------------

status Success 31.01.2017 21:03:12
simpla/files/backup/simpla_2017_01_31_21_00_44.sql
----------------------------------------

status Success 01.02.2017 21:02:37
simpla/files/backup/simpla_2017_02_01_21_00_32.sql
----------------------------------------

status Success 02.02.2017 21:03:54
simpla/files/backup/simpla_2017_02_02_21_01_00.sql
----------------------------------------

status Success 03.02.2017 21:04:26
simpla/files/backup/simpla_2017_02_03_21_01_56.sql
----------------------------------------

status Success 04.02.2017 21:01:57
simpla/files/backup/simpla_2017_02_04_21_00_39.sql
----------------------------------------

status Success 05.02.2017 21:02:26
simpla/files/backup/simpla_2017_02_05_21_00_58.sql
----------------------------------------

status Success 06.02.2017 21:01:40
simpla/files/backup/simpla_2017_02_06_21_00_36.sql
----------------------------------------

status Success 07.02.2017 21:02:14
simpla/files/backup/simpla_2017_02_07_21_00_54.sql
----------------------------------------

status Success 08.02.2017 21:02:10
simpla/files/backup/simpla_2017_02_08_21_00_49.sql
----------------------------------------

status Success 09.02.2017 21:01:05
simpla/files/backup/simpla_2017_02_09_21_00_21.sql
----------------------------------------

status Success 10.02.2017 21:03:25
simpla/files/backup/simpla_2017_02_10_21_01_49.sql
----------------------------------------

status Success 11.02.2017 21:02:41
simpla/files/backup/simpla_2017_02_11_21_01_37.sql
----------------------------------------

status Success 12.02.2017 21:01:40
simpla/files/backup/simpla_2017_02_12_21_00_44.sql
----------------------------------------

status Success 13.02.2017 21:02:33
simpla/files/backup/simpla_2017_02_13_21_01_23.sql
----------------------------------------

status Success 14.02.2017 21:02:40
simpla/files/backup/simpla_2017_02_14_21_01_23.sql
----------------------------------------

status Success 15.02.2017 21:01:50
simpla/files/backup/simpla_2017_02_15_21_00_39.sql
----------------------------------------

status Success 16.02.2017 21:02:07
simpla/files/backup/simpla_2017_02_16_21_00_47.sql
----------------------------------------

status Success 17.02.2017 21:02:14
simpla/files/backup/simpla_2017_02_17_21_00_53.sql
----------------------------------------

status Success 18.02.2017 21:02:25
simpla/files/backup/simpla_2017_02_18_21_00_55.sql
----------------------------------------

status Success 19.02.2017 21:01:08
simpla/files/backup/simpla_2017_02_19_21_00_29.sql
----------------------------------------

status Success 20.02.2017 21:01:41
simpla/files/backup/simpla_2017_02_20_21_00_44.sql
----------------------------------------

status Success 21.02.2017 21:01:31
simpla/files/backup/simpla_2017_02_21_21_00_31.sql
----------------------------------------

status Success 22.02.2017 21:02:42
simpla/files/backup/simpla_2017_02_22_21_01_00.sql
----------------------------------------

status Success 23.02.2017 21:02:24
simpla/files/backup/simpla_2017_02_23_21_00_50.sql
----------------------------------------

status Success 24.02.2017 21:02:52
simpla/files/backup/simpla_2017_02_24_21_01_35.sql
----------------------------------------

status Success 25.02.2017 21:02:50
simpla/files/backup/simpla_2017_02_25_21_01_30.sql
----------------------------------------

status Success 26.02.2017 21:01:55
simpla/files/backup/simpla_2017_02_26_21_00_32.sql
----------------------------------------

status Success 27.02.2017 21:02:24
simpla/files/backup/simpla_2017_02_27_21_00_54.sql
----------------------------------------

status Success 28.02.2017 21:01:28
simpla/files/backup/simpla_2017_02_28_21_00_26.sql
----------------------------------------

status Success 01.03.2017 21:00:58
simpla/files/backup/simpla_2017_03_01_21_00_29.sql
----------------------------------------

status Success 02.03.2017 21:02:00
simpla/files/backup/simpla_2017_03_02_21_01_01.sql
----------------------------------------

status Success 03.03.2017 21:02:47
simpla/files/backup/simpla_2017_03_03_21_01_01.sql
----------------------------------------

status Success 04.03.2017 21:01:55
simpla/files/backup/simpla_2017_03_04_21_00_44.sql
----------------------------------------

status Success 05.03.2017 21:01:14
simpla/files/backup/simpla_2017_03_05_21_00_35.sql
----------------------------------------

status Success 06.03.2017 21:02:16
simpla/files/backup/simpla_2017_03_06_21_00_59.sql
----------------------------------------

status Success 07.03.2017 21:02:12
simpla/files/backup/simpla_2017_03_07_21_00_50.sql
----------------------------------------

status Success 08.03.2017 21:01:39
simpla/files/backup/simpla_2017_03_08_21_00_37.sql
----------------------------------------

status Success 09.03.2017 21:01:41
simpla/files/backup/simpla_2017_03_09_21_00_39.sql
----------------------------------------

status Success 10.03.2017 21:02:49
simpla/files/backup/simpla_2017_03_10_21_01_16.sql
----------------------------------------

status Success 11.03.2017 21:02:32
simpla/files/backup/simpla_2017_03_11_21_01_00.sql
----------------------------------------

status Success 12.03.2017 21:02:36
simpla/files/backup/simpla_2017_03_12_21_00_58.sql
----------------------------------------

status Success 13.03.2017 21:01:27
simpla/files/backup/simpla_2017_03_13_21_00_26.sql
----------------------------------------

status Success 14.03.2017 21:02:24
simpla/files/backup/simpla_2017_03_14_21_00_54.sql
----------------------------------------

status Success 15.03.2017 21:01:26
simpla/files/backup/simpla_2017_03_15_21_00_29.sql
----------------------------------------

status Success 16.03.2017 21:01:44
simpla/files/backup/simpla_2017_03_16_21_00_32.sql
----------------------------------------

status Success 17.03.2017 21:02:53
simpla/files/backup/simpla_2017_03_17_21_01_30.sql
----------------------------------------

status Success 18.03.2017 21:02:15
simpla/files/backup/simpla_2017_03_18_21_00_53.sql
----------------------------------------

status Success 19.03.2017 21:01:39
simpla/files/backup/simpla_2017_03_19_21_00_35.sql
----------------------------------------

status Success 20.03.2017 21:01:34
simpla/files/backup/simpla_2017_03_20_21_00_25.sql
----------------------------------------

status Success 21.03.2017 21:02:15
simpla/files/backup/simpla_2017_03_21_21_01_00.sql
----------------------------------------

status Success 22.03.2017 21:01:34
simpla/files/backup/simpla_2017_03_22_21_00_31.sql
----------------------------------------

status Success 23.03.2017 21:01:48
simpla/files/backup/simpla_2017_03_23_21_00_42.sql
----------------------------------------

status Success 24.03.2017 21:02:40
simpla/files/backup/simpla_2017_03_24_21_01_22.sql
----------------------------------------

status Success 25.03.2017 21:02:01
simpla/files/backup/simpla_2017_03_25_21_00_39.sql
----------------------------------------

status Success 26.03.2017 21:01:25
simpla/files/backup/simpla_2017_03_26_21_00_29.sql
----------------------------------------

status Success 27.03.2017 21:01:43
simpla/files/backup/simpla_2017_03_27_21_00_38.sql
----------------------------------------

status Success 28.03.2017 21:01:40
simpla/files/backup/simpla_2017_03_28_21_00_35.sql
----------------------------------------

status Success 29.03.2017 21:01:47
simpla/files/backup/simpla_2017_03_29_21_00_37.sql
----------------------------------------

status Success 30.03.2017 21:00:46
simpla/files/backup/simpla_2017_03_30_21_00_06.sql
----------------------------------------

status Success 31.03.2017 21:02:55
simpla/files/backup/simpla_2017_03_31_21_00_59.sql
----------------------------------------

status Success 01.04.2017 21:01:54
simpla/files/backup/simpla_2017_04_01_21_00_39.sql
----------------------------------------

status Success 02.04.2017 21:01:24
simpla/files/backup/simpla_2017_04_02_21_00_27.sql
----------------------------------------

status Success 03.04.2017 21:00:58
simpla/files/backup/simpla_2017_04_03_21_00_16.sql
----------------------------------------

status Success 04.04.2017 21:01:59
simpla/files/backup/simpla_2017_04_04_21_00_43.sql
----------------------------------------

status Success 05.04.2017 21:00:55
simpla/files/backup/simpla_2017_04_05_21_00_18.sql
----------------------------------------

status Success 06.04.2017 21:01:38
simpla/files/backup/simpla_2017_04_06_21_00_38.sql
----------------------------------------

status Success 07.04.2017 21:02:33
simpla/files/backup/simpla_2017_04_07_21_00_53.sql
----------------------------------------

status Success 08.04.2017 21:01:57
simpla/files/backup/simpla_2017_04_08_21_00_37.sql
----------------------------------------

status Success 09.04.2017 21:01:43
simpla/files/backup/simpla_2017_04_09_21_00_30.sql
----------------------------------------

status Success 10.04.2017 21:01:46
simpla/files/backup/simpla_2017_04_10_21_00_33.sql
----------------------------------------

status Success 11.04.2017 21:01:29
simpla/files/backup/simpla_2017_04_11_21_00_21.sql
----------------------------------------

status Success 12.04.2017 21:01:18
simpla/files/backup/simpla_2017_04_12_21_00_26.sql
----------------------------------------

status Success 13.04.2017 21:01:28
simpla/files/backup/simpla_2017_04_13_21_00_28.sql
----------------------------------------

status Success 14.04.2017 21:02:33
simpla/files/backup/simpla_2017_04_14_21_01_00.sql
----------------------------------------

status Success 15.04.2017 21:01:37
simpla/files/backup/simpla_2017_04_15_21_00_33.sql
----------------------------------------

status Success 16.04.2017 21:01:07
simpla/files/backup/simpla_2017_04_16_21_00_26.sql
----------------------------------------

status Success 17.04.2017 21:01:06
simpla/files/backup/simpla_2017_04_17_21_00_22.sql
----------------------------------------

status Success 18.04.2017 21:00:54
simpla/files/backup/simpla_2017_04_18_21_00_21.sql
----------------------------------------

status Success 19.04.2017 21:00:53
simpla/files/backup/simpla_2017_04_19_21_00_18.sql
----------------------------------------

status Success 20.04.2017 21:01:24
simpla/files/backup/simpla_2017_04_20_21_00_27.sql
----------------------------------------

status Success 21.04.2017 21:02:36
simpla/files/backup/simpla_2017_04_21_21_00_56.sql
----------------------------------------

status Success 22.04.2017 21:02:00
simpla/files/backup/simpla_2017_04_22_21_00_43.sql
----------------------------------------

status Success 23.04.2017 21:01:38
simpla/files/backup/simpla_2017_04_23_21_00_24.sql
----------------------------------------

status Success 24.04.2017 21:02:39
simpla/files/backup/simpla_2017_04_24_21_00_52.sql
----------------------------------------

status Success 25.04.2017 21:01:56
simpla/files/backup/simpla_2017_04_25_21_00_39.sql
----------------------------------------

status Success 26.04.2017 21:00:55
simpla/files/backup/simpla_2017_04_26_21_00_11.sql
----------------------------------------

status Success 27.04.2017 21:01:00
simpla/files/backup/simpla_2017_04_27_21_00_18.sql
----------------------------------------

status Success 28.04.2017 21:02:37
simpla/files/backup/simpla_2017_04_28_21_01_03.sql
----------------------------------------

status Success 29.04.2017 21:01:35
simpla/files/backup/simpla_2017_04_29_21_00_23.sql
----------------------------------------

status Success 30.04.2017 21:01:15
simpla/files/backup/simpla_2017_04_30_21_00_23.sql
----------------------------------------

status Success 01.05.2017 21:01:14
simpla/files/backup/simpla_2017_05_01_21_00_27.sql
----------------------------------------

status Success 02.05.2017 21:02:00
simpla/files/backup/simpla_2017_05_02_21_00_39.sql
----------------------------------------

status Success 03.05.2017 21:01:00
simpla/files/backup/simpla_2017_05_03_21_00_21.sql
----------------------------------------

status Success 04.05.2017 21:02:27
simpla/files/backup/simpla_2017_05_04_21_00_42.sql
----------------------------------------

status Success 05.05.2017 21:00:58
simpla/files/backup/simpla_2017_05_05_21_00_17.sql
----------------------------------------

status Success 06.05.2017 21:01:31
simpla/files/backup/simpla_2017_05_06_21_00_28.sql
----------------------------------------

status Success 07.05.2017 21:01:21
simpla/files/backup/simpla_2017_05_07_21_00_18.sql
----------------------------------------

status Success 08.05.2017 21:00:50
simpla/files/backup/simpla_2017_05_08_21_00_17.sql
----------------------------------------

status Success 09.05.2017 21:01:38
simpla/files/backup/simpla_2017_05_09_21_00_33.sql
----------------------------------------

status Success 10.05.2017 21:01:53
simpla/files/backup/simpla_2017_05_10_21_00_30.sql
----------------------------------------

status Success 11.05.2017 21:01:28
simpla/files/backup/simpla_2017_05_11_21_00_31.sql
----------------------------------------

status Success 12.05.2017 21:02:10
simpla/files/backup/simpla_2017_05_12_21_00_44.sql
----------------------------------------

status Success 13.05.2017 21:01:31
simpla/files/backup/simpla_2017_05_13_21_00_26.sql
----------------------------------------

status Success 14.05.2017 21:01:57
simpla/files/backup/simpla_2017_05_14_21_00_40.sql
----------------------------------------

status Success 15.05.2017 21:01:54
simpla/files/backup/simpla_2017_05_15_21_00_44.sql
----------------------------------------

status Success 16.05.2017 21:01:18
simpla/files/backup/simpla_2017_05_16_21_00_23.sql
----------------------------------------

status Success 17.05.2017 21:00:58
simpla/files/backup/simpla_2017_05_17_21_00_18.sql
----------------------------------------

status Success 18.05.2017 21:01:10
simpla/files/backup/simpla_2017_05_18_21_00_25.sql
----------------------------------------

status Success 19.05.2017 21:02:23
simpla/files/backup/simpla_2017_05_19_21_00_50.sql
----------------------------------------

status Success 20.05.2017 21:02:40
simpla/files/backup/simpla_2017_05_20_21_00_48.sql
----------------------------------------

status Success 21.05.2017 21:01:01
simpla/files/backup/simpla_2017_05_21_21_00_19.sql
----------------------------------------

status Success 22.05.2017 21:01:17
simpla/files/backup/simpla_2017_05_22_21_00_21.sql
----------------------------------------

status Success 23.05.2017 21:02:34
simpla/files/backup/simpla_2017_05_23_21_00_56.sql
----------------------------------------

status Success 24.05.2017 21:01:34
simpla/files/backup/simpla_2017_05_24_21_00_21.sql
----------------------------------------

status Success 25.05.2017 21:01:33
simpla/files/backup/simpla_2017_05_25_21_00_25.sql
----------------------------------------

status Success 26.05.2017 21:00:57
simpla/files/backup/simpla_2017_05_26_21_00_20.sql
----------------------------------------

status Success 27.05.2017 21:01:08
simpla/files/backup/simpla_2017_05_27_21_00_21.sql
----------------------------------------

status Success 28.05.2017 21:01:46
simpla/files/backup/simpla_2017_05_28_21_00_28.sql
----------------------------------------

status Success 29.05.2017 21:01:32
simpla/files/backup/simpla_2017_05_29_21_00_31.sql
----------------------------------------

status Success 30.05.2017 21:01:23
simpla/files/backup/simpla_2017_05_30_21_00_24.sql
----------------------------------------

status Success 31.05.2017 21:01:54
simpla/files/backup/simpla_2017_05_31_21_00_30.sql
----------------------------------------

status Success 01.06.2017 21:01:37
simpla/files/backup/simpla_2017_06_01_21_00_18.sql
----------------------------------------

status Success 02.06.2017 21:01:25
simpla/files/backup/simpla_2017_06_02_21_00_14.sql
----------------------------------------

status Success 03.06.2017 21:02:24
simpla/files/backup/simpla_2017_06_03_21_00_43.sql
----------------------------------------

status Success 04.06.2017 21:01:47
simpla/files/backup/simpla_2017_06_04_21_00_32.sql
----------------------------------------

status Success 05.06.2017 21:02:00
simpla/files/backup/simpla_2017_06_05_21_00_34.sql
----------------------------------------

status Success 06.06.2017 21:02:14
simpla/files/backup/simpla_2017_06_06_21_00_39.sql
----------------------------------------

status Success 07.06.2017 21:01:59
simpla/files/backup/simpla_2017_06_07_21_00_34.sql
----------------------------------------

status Success 08.06.2017 21:02:09
simpla/files/backup/simpla_2017_06_08_21_00_30.sql
----------------------------------------

status Success 09.06.2017 21:02:36
simpla/files/backup/simpla_2017_06_09_21_00_59.sql
----------------------------------------

status Success 10.06.2017 21:01:55
simpla/files/backup/simpla_2017_06_10_21_00_33.sql
----------------------------------------

status Success 11.06.2017 21:02:24
simpla/files/backup/simpla_2017_06_11_21_00_47.sql
----------------------------------------

status Success 12.06.2017 21:02:28
simpla/files/backup/simpla_2017_06_12_21_00_48.sql
----------------------------------------

status Success 13.06.2017 21:01:02
simpla/files/backup/simpla_2017_06_13_21_00_15.sql
----------------------------------------

status Success 14.06.2017 21:01:43
simpla/files/backup/simpla_2017_06_14_21_00_35.sql
----------------------------------------

status Success 15.06.2017 21:03:16
simpla/files/backup/simpla_2017_06_15_21_01_25.sql
----------------------------------------

status Success 16.06.2017 21:00:37
simpla/files/backup/simpla_2017_06_16_21_00_07.sql
----------------------------------------

status Success 17.06.2017 21:01:39
simpla/files/backup/simpla_2017_06_17_21_00_41.sql
----------------------------------------

status Success 18.06.2017 21:00:46
simpla/files/backup/simpla_2017_06_18_21_00_10.sql
----------------------------------------

status Success 19.06.2017 21:01:02
simpla/files/backup/simpla_2017_06_19_21_00_23.sql
----------------------------------------

status Success 20.06.2017 21:01:22
simpla/files/backup/simpla_2017_06_20_21_00_24.sql
----------------------------------------

status Success 21.06.2017 21:00:47
simpla/files/backup/simpla_2017_06_21_21_00_08.sql
----------------------------------------

status Success 22.06.2017 21:01:42
simpla/files/backup/simpla_2017_06_22_21_00_30.sql
----------------------------------------

status Success 23.06.2017 21:00:56
simpla/files/backup/simpla_2017_06_23_21_00_21.sql
----------------------------------------

status Success 24.06.2017 21:01:35
simpla/files/backup/simpla_2017_06_24_21_00_35.sql
----------------------------------------

status Success 25.06.2017 21:00:49
simpla/files/backup/simpla_2017_06_25_21_00_14.sql
----------------------------------------

status Success 26.06.2017 21:00:52
simpla/files/backup/simpla_2017_06_26_21_00_12.sql
----------------------------------------

status Success 27.06.2017 21:00:56
simpla/files/backup/simpla_2017_06_27_21_00_18.sql
----------------------------------------

status Success 28.06.2017 21:01:04
simpla/files/backup/simpla_2017_06_28_21_00_18.sql
----------------------------------------

status Success 29.06.2017 21:01:06
simpla/files/backup/simpla_2017_06_29_21_00_22.sql
----------------------------------------

status Success 30.06.2017 21:01:34
simpla/files/backup/simpla_2017_06_30_21_00_32.sql
----------------------------------------

status Success 01.07.2017 21:01:23
simpla/files/backup/simpla_2017_07_01_21_00_21.sql
----------------------------------------

status Success 02.07.2017 21:01:31
simpla/files/backup/simpla_2017_07_02_21_00_22.sql
----------------------------------------

status Success 03.07.2017 21:01:17
simpla/files/backup/simpla_2017_07_03_21_00_21.sql
----------------------------------------

status Success 04.07.2017 21:01:36
simpla/files/backup/simpla_2017_07_04_21_00_33.sql
----------------------------------------

status Success 05.07.2017 21:01:33
simpla/files/backup/simpla_2017_07_05_21_00_27.sql
----------------------------------------

status Success 06.07.2017 21:01:02
simpla/files/backup/simpla_2017_07_06_21_00_12.sql
----------------------------------------

status Success 07.07.2017 21:01:06
simpla/files/backup/simpla_2017_07_07_21_00_25.sql
----------------------------------------

status Success 08.07.2017 21:01:40
simpla/files/backup/simpla_2017_07_08_21_00_29.sql
----------------------------------------

status Success 09.07.2017 21:01:03
simpla/files/backup/simpla_2017_07_09_21_00_23.sql
----------------------------------------

status Success 10.07.2017 21:01:48
simpla/files/backup/simpla_2017_07_10_21_00_30.sql
----------------------------------------

status Success 11.07.2017 21:01:03
simpla/files/backup/simpla_2017_07_11_21_00_19.sql
----------------------------------------

status Success 12.07.2017 21:01:34
simpla/files/backup/simpla_2017_07_12_21_00_33.sql
----------------------------------------

status Success 13.07.2017 21:01:33
simpla/files/backup/simpla_2017_07_13_21_00_26.sql
----------------------------------------

status Success 14.07.2017 21:01:44
simpla/files/backup/simpla_2017_07_14_21_00_40.sql
----------------------------------------

status Success 15.07.2017 21:02:06
simpla/files/backup/simpla_2017_07_15_21_00_42.sql
----------------------------------------

status Success 16.07.2017 21:01:39
simpla/files/backup/simpla_2017_07_16_21_00_29.sql
----------------------------------------

status Success 17.07.2017 21:02:10
simpla/files/backup/simpla_2017_07_17_21_00_43.sql
----------------------------------------

status Success 18.07.2017 21:01:01
simpla/files/backup/simpla_2017_07_18_21_00_17.sql
----------------------------------------

status Success 19.07.2017 21:01:26
simpla/files/backup/simpla_2017_07_19_21_00_24.sql
----------------------------------------

status Success 20.07.2017 21:01:38
simpla/files/backup/simpla_2017_07_20_21_00_27.sql
----------------------------------------

status Success 21.07.2017 21:00:58
simpla/files/backup/simpla_2017_07_21_21_00_17.sql
----------------------------------------

status Success 22.07.2017 21:01:55
simpla/files/backup/simpla_2017_07_22_21_00_40.sql
----------------------------------------

status Success 23.07.2017 21:00:57
simpla/files/backup/simpla_2017_07_23_21_00_19.sql
----------------------------------------

status Success 24.07.2017 21:00:57
simpla/files/backup/simpla_2017_07_24_21_00_13.sql
----------------------------------------

status Success 25.07.2017 21:00:57
simpla/files/backup/simpla_2017_07_25_21_00_19.sql
----------------------------------------

status Success 26.07.2017 21:00:56
simpla/files/backup/simpla_2017_07_26_21_00_11.sql
----------------------------------------

status Success 27.07.2017 21:01:01
simpla/files/backup/simpla_2017_07_27_21_00_22.sql
----------------------------------------

status Success 28.07.2017 21:01:54
simpla/files/backup/simpla_2017_07_28_21_00_43.sql
----------------------------------------

status Success 29.07.2017 21:01:37
simpla/files/backup/simpla_2017_07_29_21_00_27.sql
----------------------------------------

status Success 30.07.2017 21:01:26
simpla/files/backup/simpla_2017_07_30_21_00_23.sql
----------------------------------------

status Success 31.07.2017 21:02:21
simpla/files/backup/simpla_2017_07_31_21_00_47.sql
----------------------------------------

status Success 01.08.2017 21:00:51
simpla/files/backup/simpla_2017_08_01_21_00_08.sql
----------------------------------------

status Success 02.08.2017 21:01:22
simpla/files/backup/simpla_2017_08_02_21_00_21.sql
----------------------------------------

status Success 03.08.2017 21:01:13
simpla/files/backup/simpla_2017_08_03_21_00_24.sql
----------------------------------------

status Success 04.08.2017 21:01:28
simpla/files/backup/simpla_2017_08_04_21_00_23.sql
----------------------------------------

status Success 05.08.2017 21:00:59
simpla/files/backup/simpla_2017_08_05_21_00_10.sql
----------------------------------------

status Success 06.08.2017 21:01:16
simpla/files/backup/simpla_2017_08_06_21_00_21.sql
----------------------------------------

status Success 07.08.2017 21:01:28
simpla/files/backup/simpla_2017_08_07_21_00_25.sql
----------------------------------------

status Success 08.08.2017 21:01:19
simpla/files/backup/simpla_2017_08_08_21_00_20.sql
----------------------------------------

status Success 09.08.2017 21:00:52
simpla/files/backup/simpla_2017_08_09_21_00_09.sql
----------------------------------------

status Success 10.08.2017 21:01:09
simpla/files/backup/simpla_2017_08_10_21_00_22.sql
----------------------------------------

status Success 11.08.2017 21:01:08
simpla/files/backup/simpla_2017_08_11_21_00_19.sql
----------------------------------------

status Success 12.08.2017 21:01:34
simpla/files/backup/simpla_2017_08_12_21_00_17.sql
----------------------------------------

status Success 13.08.2017 21:01:21
simpla/files/backup/simpla_2017_08_13_21_00_19.sql
----------------------------------------

status Success 14.08.2017 21:01:47
simpla/files/backup/simpla_2017_08_14_21_00_34.sql
----------------------------------------

status Success 15.08.2017 21:00:53
simpla/files/backup/simpla_2017_08_15_21_00_14.sql
----------------------------------------

status Success 16.08.2017 21:01:20
simpla/files/backup/simpla_2017_08_16_21_00_18.sql
----------------------------------------

status Success 17.08.2017 21:00:55
simpla/files/backup/simpla_2017_08_17_21_00_14.sql
----------------------------------------

status Success 18.08.2017 21:01:01
simpla/files/backup/simpla_2017_08_18_21_00_20.sql
----------------------------------------

status Success 19.08.2017 21:00:50
simpla/files/backup/simpla_2017_08_19_21_00_13.sql
----------------------------------------

status Success 20.08.2017 21:01:25
simpla/files/backup/simpla_2017_08_20_21_00_22.sql
----------------------------------------

status Success 21.08.2017 21:01:19
simpla/files/backup/simpla_2017_08_21_21_00_21.sql
----------------------------------------

status Success 22.08.2017 21:01:03
simpla/files/backup/simpla_2017_08_22_21_00_21.sql
----------------------------------------

status Success 23.08.2017 21:00:54
simpla/files/backup/simpla_2017_08_23_21_00_10.sql
----------------------------------------

status Success 24.08.2017 21:02:15
simpla/files/backup/simpla_2017_08_24_21_00_43.sql
----------------------------------------

status Success 25.08.2017 21:00:54
simpla/files/backup/simpla_2017_08_25_21_00_14.sql
----------------------------------------

status Success 26.08.2017 21:01:49
simpla/files/backup/simpla_2017_08_26_21_00_25.sql
----------------------------------------

status Success 27.08.2017 21:00:55
simpla/files/backup/simpla_2017_08_27_21_00_13.sql
----------------------------------------

status Success 28.08.2017 21:01:27
simpla/files/backup/simpla_2017_08_28_21_00_20.sql
----------------------------------------

status Success 29.08.2017 21:01:09
simpla/files/backup/simpla_2017_08_29_21_00_15.sql
----------------------------------------

status Success 30.08.2017 21:01:48
simpla/files/backup/simpla_2017_08_30_21_00_33.sql
----------------------------------------

status Success 31.08.2017 21:02:22
simpla/files/backup/simpla_2017_08_31_21_00_54.sql
----------------------------------------

status Success 01.09.2017 21:00:48
simpla/files/backup/simpla_2017_09_01_21_00_08.sql
----------------------------------------

status Success 02.09.2017 21:01:55
simpla/files/backup/simpla_2017_09_02_21_00_37.sql
----------------------------------------

status Success 03.09.2017 21:01:00
simpla/files/backup/simpla_2017_09_03_21_00_21.sql
----------------------------------------

status Success 04.09.2017 21:00:58
simpla/files/backup/simpla_2017_09_04_21_00_14.sql
----------------------------------------

status Success 05.09.2017 21:01:00
simpla/files/backup/simpla_2017_09_05_21_00_19.sql
----------------------------------------

status Success 06.09.2017 21:00:42
simpla/files/backup/simpla_2017_09_06_21_00_09.sql
----------------------------------------

status Success 07.09.2017 21:00:51
simpla/files/backup/simpla_2017_09_07_21_00_12.sql
----------------------------------------

status Success 08.09.2017 21:01:33
simpla/files/backup/simpla_2017_09_08_21_00_24.sql
----------------------------------------

status Success 09.09.2017 21:02:16
simpla/files/backup/simpla_2017_09_09_21_00_49.sql
----------------------------------------

status Success 10.09.2017 21:01:02
simpla/files/backup/simpla_2017_09_10_21_00_08.sql
----------------------------------------

status Success 11.09.2017 21:01:28
simpla/files/backup/simpla_2017_09_11_21_00_20.sql
----------------------------------------

status Success 12.09.2017 21:00:52
simpla/files/backup/simpla_2017_09_12_21_00_12.sql
----------------------------------------

status Success 13.09.2017 21:00:54
simpla/files/backup/simpla_2017_09_13_21_00_17.sql
----------------------------------------

status Success 14.09.2017 21:00:56
simpla/files/backup/simpla_2017_09_14_21_00_14.sql
----------------------------------------

status Success 15.09.2017 21:01:22
simpla/files/backup/simpla_2017_09_15_21_00_20.sql
----------------------------------------

status Success 16.09.2017 21:02:10
simpla/files/backup/simpla_2017_09_16_21_00_33.sql
----------------------------------------

status Success 17.09.2017 21:01:07
simpla/files/backup/simpla_2017_09_17_21_00_16.sql
----------------------------------------

status Success 18.09.2017 21:01:28
simpla/files/backup/simpla_2017_09_18_21_00_23.sql
----------------------------------------

status Success 19.09.2017 21:01:16
simpla/files/backup/simpla_2017_09_19_21_00_16.sql
----------------------------------------

status Success 20.09.2017 21:01:00
simpla/files/backup/simpla_2017_09_20_21_00_20.sql
----------------------------------------

status Success 21.09.2017 21:01:01
simpla/files/backup/simpla_2017_09_21_21_00_07.sql
----------------------------------------

