<?xml version="1.0" encoding="utf-8"?>
<!-- Generator: Adobe Illustrator 16.0.0, SVG Export Plug-In . SVG Version: 6.00 Build 0)  -->
<!DOCTYPE svg PUBLIC "-//W3C//DTD SVG 1.1//EN" "http://www.w3.org/Graphics/SVG/1.1/DTD/svg11.dtd">
<svg version="1.1" id="Layer_1" xmlns="http://www.w3.org/2000/svg" xmlns:xlink="http://www.w3.org/1999/xlink" x="0px" y="0px"
	 width="72px" height="72px" viewBox="0 0 72 72" enable-background="new 0 0 72 72" xml:space="preserve">
<g>
	<path fill="#2A2A2A" d="M65.398,17.8H53.819l-6.732-6.748c-0.008-0.008-0.015-0.014-0.021-0.022l-0.013-0.011l0,0
		c-1.012-1.001-2.4-1.619-3.936-1.619h-14c-1.626,0-3.077,0.703-4.101,1.811l-0.006-0.017L18.417,17.8H6.6
		c-3.093,0-5.6,2.508-5.6,5.6V57c0,3.092,2.507,5.6,5.6,5.6h58.798C68.492,62.6,71,60.092,71,57V23.4
		C71,20.308,68.492,17.8,65.398,17.8z M68.2,57c0,1.542-1.258,2.8-2.802,2.8H6.6c-1.543,0-2.8-1.258-2.8-2.8V23.4
		c0-1.545,1.256-2.8,2.8-2.8h11.817h1.161l0.822-0.823l6.672-6.666c0.544-0.588,1.27-0.911,2.045-0.911h14
		c0.739,0,1.439,0.287,1.987,0.829l6.731,6.748l0.82,0.823h1.162h11.58c1.544,0,2.802,1.255,2.802,2.8V57L68.2,57z"/>
	<path fill="#2A2A2A" d="M35.999,20.601c-10.051,0-18.199,8.146-18.199,18.196C17.8,48.849,25.948,57,35.999,57
		c10.052,0,18.2-8.151,18.2-18.203C54.199,28.746,46.051,20.601,35.999,20.601z M35.999,54.199c-8.491,0-15.399-6.909-15.399-15.402
		c0-8.49,6.908-15.396,15.399-15.396s15.399,6.907,15.399,15.396C51.399,47.29,44.49,54.199,35.999,54.199z"/>
	<path fill="#2A2A2A" d="M35.999,26.2c-6.96,0-12.6,5.638-12.6,12.597c0,6.959,5.64,12.603,12.6,12.603
		c6.961,0,12.6-5.644,12.6-12.603C48.599,31.838,42.96,26.2,35.999,26.2z M35.999,48.6c-5.403,0-9.8-4.399-9.8-9.803
		c0-5.403,4.397-9.797,9.8-9.797c5.403,0,9.8,4.394,9.8,9.797C45.799,44.2,41.402,48.6,35.999,48.6z"/>
</g>
</svg>
