<?xml version="1.0" encoding="utf-8"?>
<!-- Generator: Adobe Illustrator 16.0.0, SVG Export Plug-In . SVG Version: 6.00 Build 0)  -->
<!DOCTYPE svg PUBLIC "-//W3C//DTD SVG 1.1//EN" "http://www.w3.org/Graphics/SVG/1.1/DTD/svg11.dtd">
<svg version="1.1" id="Layer_1" xmlns="http://www.w3.org/2000/svg" xmlns:xlink="http://www.w3.org/1999/xlink" x="0px" y="0px"
	 width="125px" height="55px" viewBox="0 0 125 55" enable-background="new 0 0 125 55" xml:space="preserve">
<g>
	<defs>
		<path id="SVGID_1_" d="M23.432,24.665c0.438-0.761,0.843-1.449,1.262-2.189c0.127,0.219,0.253,0.437,0.432,0.747
			c-0.421,0.738-0.803,1.394-1.214,2.107C23.743,25.095,23.602,24.902,23.432,24.665 M18.865,21.074
			c0.338-0.927,0.868-1.569,1.259-2.359c0.17,0.296,0.288,0.499,0.427,0.741c-0.258,0.775-0.751,1.414-1.165,2.194
			C19.211,21.449,19.047,21.282,18.865,21.074 M10.306,19.102c-0.229-0.403-0.183-1.159,0.148-1.744
			c0.873-1.546,1.753-3.078,2.643-4.599c0.346-0.593,0.751-0.662,0.993-0.233c0.242,0.43,0.198,1.109-0.146,1.726
			c-0.45,0.81-0.965,1.623-1.371,2.387c0.002,0.003,0.004,0.006,0.006,0.01c-0.423,0.734-0.846,1.482-1.278,2.202
			c-0.209,0.35-0.428,0.523-0.623,0.523C10.536,19.374,10.408,19.283,10.306,19.102 M12.598,5.208
			C12.58,5.239,12.562,5.27,12.544,5.3L2.142,23.314C1.383,24.626,1.003,26.088,1,27.551v0.044c0.003,1.474,0.389,2.949,1.153,4.272
			l10.392,17.998c0.011,0.02,0.021,0.038,0.033,0.057c0.7,1.194,2.432,1.178,3.123-0.021l11.131-19.304
			c1.091-1.891,1.09-4.219-0.001-6.109l-4.419-7.656c0.018,0.521,0.066,0.991,0.092,1.5c0.027,0.54,0.098,0.906,0.412,1.16
			c0.614,0.496,0.754,1.491,0.592,2.698c-0.154,1.151-0.593,1.825-1.232,2.146c-0.093,0.046-0.192,0.125-0.278,0.11
			c-0.511-0.084-0.837,0.422-1.131,1.254c0.935,2.433,1.214,5.226,0.583,8.419c-0.461,2.329-1.302,4.254-2.476,5.681
			c-2.508,3.045-5.438,2.791-7.176-0.477c-1.938-3.645-1.631-9.211,0.493-13.24c1.714-3.254,4.82-5.266,7.657-2.077
			c0.403-0.417,0.659-0.871,0.57-1.774c-0.07-0.713,0.137-1.456,0.47-2.04c0.181-0.317,0.231-0.614,0.203-0.998
			c-0.042-0.588-0.073-1.172-0.103-1.765c-0.055-1.074-0.052-2.249-0.179-3.202l-1.592-2.757c-0.066,0.375-0.123,0.733-0.189,1.112
			c-0.146,0.833-0.377,1.505-0.752,2.13c-0.647,1.074-1.271,2.189-1.962,3.385c0.382,0.239,0.72,0.452,1.049,0.659
			c-0.016,0.112-0.015,0.162-0.029,0.191c-0.658,1.344-0.659,1.345-1.526,0.891c-0.959-0.502-1.918-1.004-2.921-1.53
			c0.058-0.198,0.07-0.285,0.101-0.344c0.628-1.202,0.638-1.239,1.429-0.78c0.376,0.219,0.625,0.077,0.925-0.477
			c0.634-1.17,1.297-2.286,1.961-3.407c0.242-0.408,0.388-0.833,0.486-1.379c0.136-0.753,0.333-1.613,0.396-2.238l-2.568-4.447
			c-0.348-0.603-0.959-0.906-1.57-0.906C13.547,4.332,12.948,4.623,12.598,5.208"/>
	</defs>
	<clipPath id="SVGID_2_">
		<use xlink:href="#SVGID_1_"  overflow="visible"/>
	</clipPath>
	
		<linearGradient id="SVGID_3_" gradientUnits="userSpaceOnUse" x1="-282.1045" y1="176.9941" x2="-281.9276" y2="176.9941" gradientTransform="matrix(150.3629 0 0 -150.3629 42419 26641.125)">
		<stop  offset="0" style="stop-color:#FFE100"/>
		<stop  offset="1" style="stop-color:#F6733C"/>
	</linearGradient>
	<rect x="1" y="4.332" clip-path="url(#SVGID_2_)" fill="url(#SVGID_3_)" width="26.922" height="46.785"/>
</g>
<g>
	<defs>
		<path id="SVGID_4_" d="M13.163,27.338c-1.749,3.161-1.91,8.097-0.247,10.787c1.619,2.62,4.44,2.165,6.254-1.089
			c1.599-2.866,1.93-7.582,0.678-9.704c-0.525,0.91-1.055,1.816-1.573,2.742c-0.072,0.129-0.111,0.362-0.118,0.54
			c-0.01,0.278,0.016,0.555,0.038,0.827c0.189,2.277-1.291,4.664-2.656,4.168c-1.255-0.456-1.817-2.822-1.1-4.908
			c0.515-1.499,1.437-2.273,2.404-2.041c0.167,0.04,0.414,0.114,0.513-0.044c0.566-0.899,1.1-1.864,1.643-2.806
			c-0.552-0.903-1.313-1.331-2.136-1.331C15.598,24.479,14.185,25.49,13.163,27.338"/>
	</defs>
	<clipPath id="SVGID_5_">
		<use xlink:href="#SVGID_4_"  overflow="visible"/>
	</clipPath>
	
		<linearGradient id="SVGID_6_" gradientUnits="userSpaceOnUse" x1="-279.2959" y1="177.4023" x2="-279.1186" y2="177.4023" gradientTransform="matrix(49.9715 0 0 -49.9715 13968.5625 8897.7188)">
		<stop  offset="0" style="stop-color:#FFE100"/>
		<stop  offset="1" style="stop-color:#F6733C"/>
	</linearGradient>
	<rect x="11.252" y="24.479" clip-path="url(#SVGID_5_)" fill="url(#SVGID_6_)" width="9.848" height="16.266"/>
</g>
<g>
	<defs>
		<path id="SVGID_7_" d="M24.742,8.168C23.801,8.73,22.87,9.292,21.93,9.863l1.591,2.757c0.681-1.51,1.183-3.04,1.805-4.643
			C25.019,8.076,24.853,8.102,24.742,8.168"/>
	</defs>
	<clipPath id="SVGID_8_">
		<use xlink:href="#SVGID_7_"  overflow="visible"/>
	</clipPath>
	
		<linearGradient id="SVGID_9_" gradientUnits="userSpaceOnUse" x1="-274.9395" y1="183.0908" x2="-274.7624" y2="183.0908" gradientTransform="matrix(9.1577 15.8616 15.8616 -9.1577 -363.3125 6046.8477)">
		<stop  offset="0" style="stop-color:#189DF8"/>
		<stop  offset="1" style="stop-color:#9542AA"/>
	</linearGradient>
	<polygon clip-path="url(#SVGID_8_)" fill="url(#SVGID_9_)" points="24.478,6.507 27.337,11.459 22.779,14.092 19.919,9.138 	"/>
</g>
<g>
	<defs>
		<path id="SVGID_10_" d="M26.327,3.934c-0.527-0.208-1.094-0.4-1.627-0.651c-0.297-0.14-0.667-0.379-0.778-0.573
			c-0.257-0.445,0.304-0.693,0.882-0.472c0.871,0.333,1.752,0.631,2.62,0.976c0.572,0.227,0.807,0.508,0.77,0.909
			c-0.043,0.473-0.147,0.926-0.236,1.385c-0.039,0.199-0.106,0.389-0.185,0.666C26.329,4.963,26.329,4.963,26.327,3.934 M40.79,1
			L19.949,1.025H19.92c-1.381,0.003-2.243,1.499-1.552,2.695L20.88,8.07c1.477-0.864,2.865-1.727,4.352-2.623
			c2.226,1.931,4.298,3.892,6.521,5.851c2.285-0.486,4.842-0.198,7.632,0.906c2.323,0.918,4.241,2.201,5.658,3.794
			c2.958,3.327,2.179,6.48-1.201,7.503c-3.421,1.035-8.759-0.364-12.282-3.267c-3.444-2.839-4.594-6.55-1.072-8.51
			c-0.458-0.423-0.925-0.86-1.403-1.294C28.6,9.99,28.105,9.553,27.513,9.023c-0.125,0.203-0.239,0.339-0.301,0.5
			c-0.737,1.897-1.465,3.799-2.205,5.695l4.495,7.786c1.093,1.893,3.112,3.058,5.297,3.057l22.265-0.012
			c1.375-0.001,2.255-1.481,1.584-2.682c-0.017-0.03-0.034-0.06-0.051-0.089L48.205,5.278C46.676,2.631,43.852,1.001,40.794,1H40.79
			z"/>
	</defs>
	<clipPath id="SVGID_11_">
		<use xlink:href="#SVGID_10_"  overflow="visible"/>
	</clipPath>
	
		<linearGradient id="SVGID_12_" gradientUnits="userSpaceOnUse" x1="-283.0986" y1="177.2744" x2="-282.9214" y2="177.2744" gradientTransform="matrix(114.8999 199.0124 199.0124 -114.8999 -2723.5 76704.9375)">
		<stop  offset="0" style="stop-color:#189DF8"/>
		<stop  offset="1" style="stop-color:#9542AA"/>
	</linearGradient>
	<polygon clip-path="url(#SVGID_11_)" fill="url(#SVGID_12_)" points="48.908,-17.031 70.17,19.796 28.087,44.093 6.825,7.265 	"/>
</g>
<g>
	<defs>
		<path id="SVGID_13_" d="M33.31,12.718c0.706,0.642,1.424,1.281,2.114,1.929c0.348,0.328,0.64,0.494,1.2,0.536
			c2.153,0.161,4.227,1.626,4.369,3.089c0.143,1.478-2.077,2.057-4.315,0.936c-2.117-1.06-2.891-2.293-2.167-3.429
			c0.059-0.093,0.109-0.191,0.163-0.286c-0.912-0.824-1.779-1.605-2.703-2.441c-2.35,1.137-2.38,4.107,1.187,6.864
			c2.785,2.153,7.616,3.46,10.314,1.917c2.447-1.399,1.739-4.471-1.57-6.93c-1.994-1.481-5.064-2.494-7.082-2.494
			C34.194,12.409,33.67,12.507,33.31,12.718"/>
	</defs>
	<clipPath id="SVGID_14_">
		<use xlink:href="#SVGID_13_"  overflow="visible"/>
	</clipPath>
	
		<linearGradient id="SVGID_15_" gradientUnits="userSpaceOnUse" x1="-282.2822" y1="178.0059" x2="-282.1053" y2="178.0059" gradientTransform="matrix(37.705 65.3071 65.3071 -37.705 -947.3125 25158.4219)">
		<stop  offset="0" style="stop-color:#189DF8"/>
		<stop  offset="1" style="stop-color:#9542AA"/>
	</linearGradient>
	<polygon clip-path="url(#SVGID_14_)" fill="url(#SVGID_15_)" points="41.836,5.339 50.667,20.635 33.672,30.446 24.842,15.151 	"/>
</g>
<g>
	<defs>
		<polygon id="SVGID_16_" points="72.082,15.225 68.554,25.06 65.022,15.225 60.205,15.225 66.511,30.878 70.507,30.878 
			76.813,15.225 		"/>
	</defs>
	<clipPath id="SVGID_17_">
		<use xlink:href="#SVGID_16_"  overflow="visible"/>
	</clipPath>
	
		<linearGradient id="SVGID_18_" gradientUnits="userSpaceOnUse" x1="-283.3438" y1="176.6787" x2="-283.1665" y2="176.6787" gradientTransform="matrix(0 88.3185 88.3185 0 -15535.5 25039.75)">
		<stop  offset="0" style="stop-color:#356DD3"/>
		<stop  offset="1" style="stop-color:#AA3099"/>
	</linearGradient>
	<rect x="60.205" y="15.225" clip-path="url(#SVGID_17_)" fill="url(#SVGID_18_)" width="16.608" height="15.653"/>
</g>
<g>
	<defs>
		<polygon id="SVGID_19_" points="78.766,15.225 78.766,30.767 91.377,30.767 91.377,27.103 83.028,27.103 83.028,24.638 
			90.487,24.638 90.487,21.242 83.028,21.242 83.028,18.888 91.266,18.888 91.266,15.225 		"/>
	</defs>
	<clipPath id="SVGID_20_">
		<use xlink:href="#SVGID_19_"  overflow="visible"/>
	</clipPath>
	
		<linearGradient id="SVGID_21_" gradientUnits="userSpaceOnUse" x1="-283.3389" y1="175.7988" x2="-283.1616" y2="175.7988" gradientTransform="matrix(0 87.6918 87.6918 0 -15331.0625 24861.75)">
		<stop  offset="0" style="stop-color:#356DD3"/>
		<stop  offset="1" style="stop-color:#AA3099"/>
	</linearGradient>
	<rect x="78.766" y="15.225" clip-path="url(#SVGID_20_)" fill="url(#SVGID_21_)" width="12.611" height="15.542"/>
</g>
<g>
	<defs>
		<polygon id="SVGID_22_" points="94.018,15.225 94.018,30.767 105.852,30.767 105.852,26.992 98.324,26.992 98.324,15.225 		"/>
	</defs>
	<clipPath id="SVGID_23_">
		<use xlink:href="#SVGID_22_"  overflow="visible"/>
	</clipPath>
	
		<linearGradient id="SVGID_24_" gradientUnits="userSpaceOnUse" x1="-283.3389" y1="175.0117" x2="-283.1616" y2="175.0117" gradientTransform="matrix(0 87.6918 87.6918 0 -15247.1875 24861.75)">
		<stop  offset="0" style="stop-color:#356DD3"/>
		<stop  offset="1" style="stop-color:#AA3099"/>
	</linearGradient>
	<rect x="94.018" y="15.225" clip-path="url(#SVGID_23_)" fill="url(#SVGID_24_)" width="11.834" height="15.542"/>
</g>
<g>
	<defs>
		<path id="SVGID_25_" d="M111.135,22.995c0-2.287,1.576-4.196,3.929-4.196c2.378,0,3.998,1.954,3.998,4.196
			c0,2.288-1.577,4.197-3.953,4.197C112.757,27.192,111.135,25.238,111.135,22.995 M106.716,22.995c0,4.508,3.553,8.082,8.348,8.082
			c4.796,0,8.395-3.618,8.395-8.082c0-4.507-3.553-8.081-8.35-8.081C110.313,14.914,106.716,18.533,106.716,22.995"/>
	</defs>
	<clipPath id="SVGID_26_">
		<use xlink:href="#SVGID_25_"  overflow="visible"/>
	</clipPath>
	
		<linearGradient id="SVGID_27_" gradientUnits="userSpaceOnUse" x1="-283.3481" y1="174.3184" x2="-283.1709" y2="174.3184" gradientTransform="matrix(0 91.199 91.199 0 -15782.5 25856)">
		<stop  offset="0" style="stop-color:#356DD3"/>
		<stop  offset="1" style="stop-color:#AA3099"/>
	</linearGradient>
	<rect x="106.716" y="14.914" clip-path="url(#SVGID_26_)" fill="url(#SVGID_27_)" width="16.742" height="16.163"/>
</g>
<g>
	<defs>
		<path id="SVGID_28_" d="M28.548,42.575c2.583-4.474,9.379-7.981,15.82-7.981c4.346,0,6.265,1.359,7.06,3.245l-5.707,2.413
			c-0.583-1.097-1.618-1.776-3.654-1.776c-2.977,0-6.125,1.819-7.442,4.1c-1.329,2.304-0.271,4.102,2.708,4.102
			c2.218,0,3.955-0.746,5.876-1.864l3.12,2.281c-3.157,1.994-6.71,3.464-11.42,3.464C28.833,50.558,25.877,47.202,28.548,42.575
			 M34.813,29c-2.184,0-4.202,1.211-5.294,3.103L18.384,51.422c-0.69,1.197,0.16,2.746,1.541,2.746h0.052l20.814-0.019
			c3.055-0.001,5.877-1.636,7.405-4.28l10.416-18.023c0.012-0.02,0.022-0.087,0.033-0.107C59.328,30.537,58.447,29,57.066,29H34.813
			z"/>
	</defs>
	<clipPath id="SVGID_29_">
		<use xlink:href="#SVGID_28_"  overflow="visible"/>
	</clipPath>
	
		<linearGradient id="SVGID_30_" gradientUnits="userSpaceOnUse" x1="-283.1064" y1="177.2803" x2="-282.9292" y2="177.2803" gradientTransform="matrix(229.884 0 0 -229.884 65099.75 40795.5)">
		<stop  offset="0" style="stop-color:#FF9933"/>
		<stop  offset="0.1114" style="stop-color:#FB7E43"/>
		<stop  offset="0.2924" style="stop-color:#F65959"/>
		<stop  offset="0.4737" style="stop-color:#F13C6A"/>
		<stop  offset="0.653" style="stop-color:#EE2876"/>
		<stop  offset="0.8296" style="stop-color:#ED1B7E"/>
		<stop  offset="1" style="stop-color:#EC1780"/>
	</linearGradient>
	<rect x="17.694" y="29" clip-path="url(#SVGID_29_)" fill="url(#SVGID_30_)" width="41.634" height="25.168"/>
</g>
<g>
	<defs>
		<rect id="SVGID_31_" x="1" y="1" width="123" height="53.168"/>
	</defs>
	<clipPath id="SVGID_32_">
		<use xlink:href="#SVGID_31_"  overflow="visible"/>
	</clipPath>
	<path clip-path="url(#SVGID_32_)" fill="#EC1780" d="M55.484,43.512l4.975-8.617h5.986l-4.925,8.531
		c-1.278,2.214-0.337,3.267,2.033,3.267s4.502-1.009,5.742-3.158l4.988-8.64h5.986l-4.912,8.509
		c-2.861,4.956-8.034,7.127-14.081,7.127C55.231,50.53,52.711,48.314,55.484,43.512"/>
	<path clip-path="url(#SVGID_32_)" fill="#EC1780" d="M84.104,34.895h10.908c2.674,0,4.279,0.483,5.006,1.382
		c0.497,0.614,0.545,1.426-0.09,2.521c-1.024,1.777-3.03,2.829-5.256,3.421c2.229,0.614,3.262,1.667,2.033,3.795
		c-1.519,2.631-5.421,4.231-10.494,4.231h-10.97L84.104,34.895z M87.518,46.824c1.793,0,3.117-0.505,3.661-1.447
		c0.481-0.833-0.114-1.382-2.089-1.382h-4.496l-1.634,2.829H87.518z M90.022,41.013c1.792,0,3.048-0.438,3.593-1.381
		c0.48-0.834-0.152-1.315-1.915-1.315h-3.827l-1.558,2.696H90.022z"/>
	<polygon clip-path="url(#SVGID_32_)" fill="#EC1780" points="106.893,34.895 124,34.895 121.91,38.514 110.638,38.514 
		109.295,40.838 119.505,40.838 117.568,44.192 107.359,44.192 105.953,46.626 117.378,46.626 115.29,50.245 98.03,50.245 	"/>
</g>
</svg>
