<?xml version="1.0" encoding="utf-8"?>
<!-- Generator: Adobe Illustrator 16.0.0, SVG Export Plug-In . SVG Version: 6.00 Build 0)  -->
<!DOCTYPE svg PUBLIC "-//W3C//DTD SVG 1.1//EN" "http://www.w3.org/Graphics/SVG/1.1/DTD/svg11.dtd">
<svg version="1.1" id="Layer_1" xmlns="http://www.w3.org/2000/svg" xmlns:xlink="http://www.w3.org/1999/xlink" x="0px" y="0px"
	 width="60px" height="60px" viewBox="0 0 60 60" enable-background="new 0 0 60 60" xml:space="preserve">
<g id="fb">
	<path id="bg_1_" fill="#346DA6" d="M54.167,1H5.833C3.175,1,1,3.175,1,5.833v48.334C1,56.826,3.175,59,5.833,59h48.334
		C56.826,59,59,56.826,59,54.167V5.833C59,3.175,56.826,1,54.167,1z"/>
	<path id="facebook" fill="#FFFFFF" d="M25.614,46.736V29.999h-3.402v-5.548h3.402v-3.355c0-4.526,1.353-7.79,6.308-7.79h5.895
		v5.537h-4.148c-2.079,0-2.553,1.381-2.553,2.828v2.78h6.396l-0.873,5.548h-5.523v16.737H25.614z"/>
</g>
</svg>
