<?xml version="1.0" encoding="utf-8"?>
<!-- Generator: Adobe Illustrator 16.0.0, SVG Export Plug-In . SVG Version: 6.00 Build 0)  -->
<!DOCTYPE svg PUBLIC "-//W3C//DTD SVG 1.1//EN" "http://www.w3.org/Graphics/SVG/1.1/DTD/svg11.dtd">
<svg version="1.1" id="Shape_13_1_" xmlns="http://www.w3.org/2000/svg" xmlns:xlink="http://www.w3.org/1999/xlink" x="0px"
	 y="0px" width="152px" height="66px" viewBox="0 0 152 66" enable-background="new 0 0 152 66" xml:space="preserve">
<g id="Shape_13">
	<g>
		<path fill-rule="evenodd" clip-rule="evenodd" fill="#414141" d="M31.914,29.156l-5.463-9.507
			c0.022,0.646,0.082,1.231,0.113,1.862c0.033,0.671,0.121,1.125,0.51,1.44c0.758,0.616,0.931,1.853,0.73,3.35
			c-0.191,1.431-0.732,2.268-1.522,2.666c-0.114,0.058-0.238,0.155-0.344,0.138C25.307,29,24.903,29.63,24.54,30.663
			c1.155,3.021,1.5,6.49,0.721,10.454c-0.569,2.895-1.608,5.284-3.06,7.056c-3.1,3.782-6.722,3.466-8.869-0.592
			c-2.396-4.526-2.016-11.438,0.609-16.441c2.12-4.04,5.958-6.539,9.463-2.579c0.498-0.518,0.814-1.082,0.705-2.203
			c-0.086-0.885,0.169-1.807,0.582-2.532c0.224-0.395,0.285-0.763,0.251-1.239c-0.053-0.73-0.09-1.456-0.128-2.192
			c-0.067-1.333-0.063-2.792-0.222-3.977l-1.967-3.424c-0.082,0.465-0.151,0.91-0.233,1.381c-0.181,1.033-0.466,1.868-0.931,2.645
			c-0.799,1.335-1.571,2.719-2.424,4.203c0.471,0.298,0.89,0.563,1.296,0.818c-0.021,0.14-0.019,0.202-0.036,0.238
			c-0.814,1.669-0.814,1.67-1.887,1.106c-1.186-0.623-2.371-1.248-3.61-1.9c0.07-0.245,0.086-0.354,0.125-0.428
			c0.776-1.492,0.789-1.539,1.765-0.969c0.466,0.271,0.772,0.096,1.144-0.593c0.785-1.453,1.604-2.838,2.425-4.23
			c0.3-0.507,0.479-1.034,0.602-1.713c0.167-0.936,0.412-2.003,0.49-2.778L18.177,5.25c-0.852-1.481-2.979-1.504-3.854-0.037
			c-0.022,0.038-0.045,0.077-0.066,0.115L1.4,27.698c-1.892,3.288-1.876,7.332,0.014,10.621l12.843,22.352l0.041,0.07
			c0.864,1.482,3.006,1.463,3.86-0.025l13.758-23.973C33.264,34.396,33.263,31.504,31.914,29.156z M23.625,21.986
			c0.211,0.367,0.355,0.619,0.529,0.921c-0.319,0.963-0.93,1.755-1.441,2.724c-0.217-0.248-0.42-0.457-0.644-0.714
			C22.488,23.765,23.142,22.968,23.625,21.986z M11.49,22.467c-0.283-0.501-0.226-1.439,0.183-2.166
			c1.079-1.92,2.168-3.823,3.267-5.711c0.428-0.736,0.929-0.822,1.228-0.289s0.244,1.377-0.18,2.143
			c-0.557,1.006-1.193,2.016-1.694,2.965c0.002,0.005,0.005,0.009,0.007,0.013c-0.523,0.911-1.046,1.841-1.58,2.734
			C12.274,22.901,11.793,23.003,11.49,22.467z M28.306,30.201c-0.207-0.291-0.381-0.53-0.593-0.826
			c0.543-0.943,1.043-1.8,1.562-2.718c0.157,0.272,0.312,0.542,0.533,0.927C29.287,28.5,28.815,29.314,28.306,30.201z M19.57,34.338
			c0.207,0.049,0.512,0.141,0.635-0.055c0.7-1.117,1.358-2.316,2.03-3.485c-1.729-2.846-5.128-1.89-7.214,1.896
			c-2.162,3.926-2.361,10.055-0.306,13.396c2.002,3.255,5.488,2.689,7.731-1.353c1.975-3.559,2.385-9.415,0.838-12.05
			c-0.649,1.131-1.305,2.255-1.945,3.405c-0.089,0.159-0.138,0.449-0.146,0.67c-0.011,0.347,0.02,0.69,0.048,1.027
			c0.232,2.828-1.596,5.791-3.283,5.176c-1.552-0.565-2.246-3.505-1.36-6.095C17.235,35.011,18.375,34.049,19.57,34.338z
			 M25.857,10.994l1.968,3.425c0.841-1.877,1.461-3.776,2.23-5.766c-0.381,0.121-0.586,0.153-0.723,0.235
			C28.17,9.588,27.02,10.283,25.857,10.994z M24.56,8.768c1.826-1.073,3.541-2.145,5.379-3.257c2.752,2.398,5.313,4.833,8.06,7.267
			c2.824-0.604,5.984-0.245,9.433,1.124c2.871,1.141,5.242,2.734,6.993,4.712c3.656,4.131,2.693,8.048-1.484,9.318
			c-4.229,1.285-10.827-0.452-15.18-4.057c-4.258-3.525-5.678-8.133-1.325-10.568c-0.565-0.525-1.144-1.068-1.733-1.607
			c-0.599-0.547-1.211-1.09-1.943-1.749c-0.154,0.252-0.297,0.423-0.373,0.62c-0.91,2.357-1.811,4.719-2.725,7.074l5.556,9.668
			c1.351,2.35,3.846,3.797,6.547,3.796l27.518-0.016c1.7-0.001,2.788-1.839,1.958-3.33c-0.021-0.036-0.041-0.073-0.063-0.11
			L58.333,5.301c-1.891-3.289-5.385-5.314-9.165-5.313L23.409,0.019h-0.036c-1.707,0.004-2.771,1.86-1.918,3.347L24.56,8.768z
			 M29.408,1.525c1.076,0.415,2.166,0.784,3.237,1.212c0.707,0.282,0.998,0.632,0.952,1.129c-0.054,0.586-0.183,1.15-0.292,1.719
			c-0.049,0.248-0.132,0.483-0.229,0.828c-1.782-1.504-1.782-1.504-1.785-2.782c-0.652-0.257-1.353-0.496-2.012-0.809
			c-0.367-0.174-0.823-0.47-0.962-0.71C28,1.559,28.693,1.25,29.408,1.525z M41.608,17.985c-1.128-1.022-2.198-1.993-3.342-3.03
			c-2.903,1.411-2.941,5.099,1.467,8.522c3.442,2.675,9.413,4.298,12.748,2.382c3.024-1.738,2.149-5.553-1.94-8.605
			c-3.229-2.41-8.739-3.821-10.618-2.715c0.872,0.797,1.76,1.591,2.613,2.396c0.43,0.406,0.791,0.612,1.482,0.665
			c2.661,0.199,5.225,2.02,5.399,3.836c0.178,1.836-2.566,2.555-5.332,1.163c-2.617-1.316-3.574-2.848-2.68-4.259
			C41.479,18.226,41.541,18.104,41.608,17.985z M85.896,37.091l7.793-19.438h-5.845l-4.363,12.214l-4.363-12.214h-5.954
			l7.793,19.438H85.896z M111.69,32.403h-10.318v-3.061h9.221v-4.219h-9.221v-2.923h10.181v-4.549H96.104v19.3h15.587V32.403z
			 M129.581,32.266h-9.303V17.652h-5.323v19.3h14.626V32.266z M140.969,37.338c5.928,0,10.373-4.494,10.373-10.036
			c0-5.597-4.391-10.035-10.318-10.035c-5.927,0-10.373,4.493-10.373,10.035C130.65,32.899,135.041,37.338,140.969,37.338z
			 M140.969,22.091c2.937,0,4.939,2.427,4.939,5.211c0,2.84-1.948,5.211-4.885,5.211c-2.908,0-4.912-2.426-4.912-5.211
			C136.111,24.462,138.061,22.091,140.969,22.091z M71.238,38.161c0.842-1.492-0.246-3.401-1.953-3.401H41.78
			c-2.699,0-5.193,1.504-6.543,3.853L21.476,62.604c-0.854,1.485,0.197,3.409,1.904,3.409h0.064L49.17,65.99
			c3.775-0.002,7.264-2.03,9.152-5.314l12.874-22.383C71.21,38.27,71.224,38.186,71.238,38.161z M55.263,48.731
			c-0.72-1.361-2-2.206-4.516-2.206c-3.681,0-7.571,2.261-9.198,5.093c-1.644,2.859-0.335,5.092,3.346,5.092
			c2.741,0,4.888-0.926,7.264-2.314l3.855,2.832c-3.902,2.479-8.294,4.303-14.114,4.303c-7.511,0-11.163-4.166-7.861-9.912
			c3.192-5.555,11.592-9.912,19.554-9.912c5.37,0,7.742,1.688,8.725,4.03L55.263,48.731z M97.965,42.08h-7.398l-6.165,10.729
			c-1.533,2.669-4.169,3.922-7.098,3.922c-2.93,0-4.094-1.307-2.514-4.058l6.087-10.593h-7.397l-6.15,10.702
			c-3.427,5.963-0.313,8.714,7.161,8.714c7.473,0,13.866-2.696,17.403-8.851L97.965,42.08z M115.766,51.175
			c2.751-0.734,5.229-2.042,6.497-4.248c0.782-1.361,0.723-2.368,0.109-3.131c-0.897-1.117-2.882-1.716-6.187-1.716h-13.482
			L91.75,61.142h13.557c6.271,0,11.095-1.987,12.973-5.255C119.797,53.245,118.521,51.938,115.766,51.175z M111.447,55.097
			c-0.673,1.171-2.31,1.797-4.525,1.797h-5.633l2.019-3.513h5.558C111.306,53.381,112.042,54.063,111.447,55.097z M114.458,47.962
			c-0.673,1.171-2.226,1.716-4.44,1.716h-4.582l1.925-3.35h4.731C114.271,46.328,115.053,46.927,114.458,47.962z M149.431,46.573
			l2.582-4.493h-21.144l-10.953,19.062h21.331l2.582-4.493h-14.121l1.737-3.022h12.618l2.394-4.166h-12.618l1.659-2.887H149.431z"/>
	</g>
</g>
</svg>
