<?xml version="1.0" encoding="utf-8"?>
<!-- Generator: Adobe Illustrator 16.0.0, SVG Export Plug-In . SVG Version: 6.00 Build 0)  -->
<!DOCTYPE svg PUBLIC "-//W3C//DTD SVG 1.1//EN" "http://www.w3.org/Graphics/SVG/1.1/DTD/svg11.dtd">
<svg version="1.1" id="Layer_1" xmlns="http://www.w3.org/2000/svg" xmlns:xlink="http://www.w3.org/1999/xlink" x="0px" y="0px"
	 width="60px" height="60px" viewBox="0 0 60 60" enable-background="new 0 0 60 60" xml:space="preserve">
<g id="ok">
	<path id="bg_5_" fill="#F2720C" d="M54.167,1H5.833C3.175,1,1,3.175,1,5.833v48.334C1,56.826,3.175,59,5.833,59h48.334
		C56.826,59,59,56.826,59,54.167V5.833C59,3.175,56.826,1,54.167,1z"/>
	<path id="K_1_" fill="#FFFFFF" d="M38.459,30c-1.209,0-3.626,2.417-8.459,2.417S22.75,30,21.542,30
		c-1.329,0-2.417,1.088-2.417,2.417c0,1.208,0.725,1.813,1.208,2.054c1.45,0.846,6.042,2.779,6.042,2.779l-5.196,6.523
		c0,0-0.967,1.088-0.967,1.935c0,1.329,1.087,2.417,2.417,2.417c1.208,0,1.812-0.846,1.812-0.846L30,40.875l5.438,6.404
		c0,0,0.604,0.846,1.813,0.846c1.329,0,2.416-1.088,2.416-2.417c0-0.726-0.965-1.935-0.965-1.935l-5.076-6.523
		c0,0,4.592-1.934,6.041-2.779c0.483-0.361,1.209-0.846,1.209-2.054C40.875,31.088,39.788,30,38.459,30z"/>
	<path id="O_1_" fill="#FFFFFF" d="M30,11.875c-4.713,0-8.458,3.746-8.458,8.458c0,4.713,3.746,8.458,8.458,8.458
		s8.459-3.746,8.459-8.458S34.712,11.875,30,11.875z M30,24.563c-2.295,0-4.229-1.933-4.229-4.229c0-2.295,1.934-4.229,4.229-4.229
		s4.229,1.933,4.229,4.229C34.229,22.629,32.295,24.563,30,24.563z"/>
</g>
</svg>
