<?xml version="1.0" encoding="utf-8"?>
<!-- Generator: Adobe Illustrator 16.0.0, SVG Export Plug-In . SVG Version: 6.00 Build 0)  -->
<!DOCTYPE svg PUBLIC "-//W3C//DTD SVG 1.1//EN" "http://www.w3.org/Graphics/SVG/1.1/DTD/svg11.dtd">
<svg version="1.1" id="Layer_1" xmlns="http://www.w3.org/2000/svg" xmlns:xlink="http://www.w3.org/1999/xlink" x="0px" y="0px"
	 width="60px" height="60px" viewBox="0 0 60 60" enable-background="new 0 0 60 60" xml:space="preserve">
<g id="vk">
	<path id="bg_2_" fill="#54769B" d="M54.167,1H5.833C3.175,1,1,3.175,1,5.833v48.334C1,56.826,3.175,59,5.833,59h48.334
		C56.826,59,59,56.826,59,54.167V5.833C59,3.175,56.826,1,54.167,1z"/>
	<path id="icon_1_" fill="#FFFFFF" d="M31.209,40.875c1.208,0,1.208-1.691,1.208-2.416c0-1.209,1.208-2.417,2.416-2.417
		c1.209,0,3.263,2.054,4.833,3.624c1.209,1.209,1.209,1.209,2.417,1.209c1.209,0,3.625,0,3.625,0s2.417-0.121,2.417-2.416
		c0-0.727-0.846-2.057-3.624-4.834c-2.418-2.416-3.626-1.208,0-6.042c2.175-3.021,3.866-5.679,3.624-6.404
		c-0.242-0.725-6.402-1.934-7.25-0.846c-2.416,3.625-2.9,4.471-3.625,6.042C36.042,28.792,35.921,30,34.833,30
		c-1.087,0-1.208-2.295-1.208-3.625c0-3.988,0.604-6.767-1.208-7.25c0,0-2.417,0-3.625,0c-1.933,0-3.625,1.208-3.625,1.208
		s-1.451,1.208-1.208,1.208c0.362,0,2.417-0.483,2.417,1.208c0,1.209,0,2.417,0,2.417s0,4.833-1.208,4.833s-3.625-4.833-6.042-8.458
		c-0.966-1.45-1.208-1.208-2.417-1.208c-1.329,0-2.417,0-3.625,0s-1.33,0.726-1.208,1.208c2.417,6.042,4.108,9.788,8.7,14.622
		c4.229,4.349,7.008,4.591,9.425,4.712C30.604,40.875,30,40.875,31.209,40.875z"/>
</g>
</svg>
